M48
; DRILL file {KiCad 8.0.1} date 2024-05-15T23:36:39+0200
; FORMAT={-:-/ absolute / inch / decimal}
; #@! TF.CreationDate,2024-05-15T23:36:39+02:00
; #@! TF.GenerationSoftware,Kicad,Pcbnew,8.0.1
; #@! TF.FileFunction,Plated,1,2,PTH
FMAT,2
INCH
; #@! TA.AperFunction,Plated,PTH,ComponentDrill
T1C0.0079
; #@! TA.AperFunction,Plated,PTH,ViaDrill
T2C0.0118
; #@! TA.AperFunction,Plated,PTH,ComponentDrill
T3C0.0374
; #@! TA.AperFunction,Plated,PTH,ComponentDrill
T4C0.0394
; #@! TA.AperFunction,Plated,PTH,ComponentDrill
T5C0.1260
%
G90
G05
T1
X2.2754Y-1.889
X2.2754Y-1.949
X2.3054Y-1.8589
X2.3054Y-1.919
X2.3054Y-1.979
X2.3354Y-1.889
X2.3354Y-1.949
X2.3655Y-1.8589
X2.3655Y-1.919
X2.3655Y-1.979
X2.3955Y-1.889
X2.3955Y-1.949
T2
X1.7992Y-2.7268
X1.835Y-2.0602
X1.85Y-1.63
X1.8744Y-2.1878
X1.8862Y-1.6996
X1.96Y-2.32
X2.0022Y-2.486
X2.01Y-2.38
X2.0406Y-2.5524
X2.0544Y-2.4671
X2.08Y-2.6
X2.13Y-2.12
X2.1661Y-2.3937
X2.1815Y-1.6732
X2.1835Y-2.5807
X2.24Y-2.23
X2.2744Y-2.65
X2.2929Y-2.4835
X2.3381Y-2.8981
X2.4265Y-2.625
X2.4476Y-2.5031
X2.47Y-2.4
X2.48Y-2.61
X2.4953Y-3.0965
X2.5029Y-2.4394
X2.5324Y-2.9287
X2.5996Y-2.2244
X2.6004Y-2.8669
X2.6007Y-2.6356
X2.6154Y-2.7965
X2.6622Y-2.354
X2.67Y-2.49
X2.6862Y-2.7315
X2.7128Y-2.5068
X2.7218Y-2.5544
X2.7549Y-2.4149
X2.7569Y-2.2631
X2.7606Y-1.839
X2.7736Y-2.0788
X2.7799Y-1.9858
X2.8146Y-1.6594
X2.8358Y-1.9232
X2.911Y-1.9402
T3
X1.9447Y-3.0
X2.0431Y-3.0
X2.1416Y-3.0
X2.24Y-3.0
X2.4724Y-2.9993
X2.5708Y-2.9993
X2.6692Y-2.9993
X2.7676Y-2.9993
T4
X1.6535Y-1.9094
X1.6535Y-2.0094
X1.6535Y-2.1094
X1.6535Y-2.2094
X1.6535Y-2.3094
X1.6535Y-2.4094
X1.7535Y-1.9094
X1.7535Y-2.0094
X1.7535Y-2.1094
X1.7535Y-2.2094
X2.68Y-2.66
X2.68Y-2.81
X2.78Y-2.66
X2.78Y-2.81
X2.88Y-2.66
X2.88Y-2.81
X2.9535Y-1.9094
X2.9535Y-2.0094
X2.9535Y-2.1094
X2.9535Y-2.2094
X2.9535Y-2.3094
X2.9535Y-2.4094
X3.0535Y-1.9094
X3.0535Y-2.0094
X3.0535Y-2.1094
X3.0535Y-2.2094
X3.0535Y-2.3094
X3.0535Y-2.4094
X3.0535Y-2.5094
X3.0535Y-2.6094
X3.0535Y-2.7094
X3.0535Y-2.8094
T5
X1.7126Y-1.7126
X1.7126Y-3.0118
X3.0118Y-1.7126
X3.0118Y-3.0118
M30
