%TF.GenerationSoftware,KiCad,Pcbnew,8.0.1*%
%TF.CreationDate,2024-05-15T23:39:53+02:00*%
%TF.ProjectId,brain,62726169-6e2e-46b6-9963-61645f706362,rev?*%
%TF.SameCoordinates,Original*%
%TF.FileFunction,Legend,Bot*%
%TF.FilePolarity,Positive*%
%FSLAX46Y46*%
G04 Gerber Fmt 4.6, Leading zero omitted, Abs format (unit mm)*
G04 Created by KiCad (PCBNEW 8.0.1) date 2024-05-15 23:39:53*
%MOMM*%
%LPD*%
G01*
G04 APERTURE LIST*
%ADD10C,0.300000*%
%ADD11C,0.200000*%
%ADD12C,0.000000*%
G04 APERTURE END LIST*
D10*
X50326857Y-48338614D02*
X50112571Y-48410042D01*
X50112571Y-48410042D02*
X50041142Y-48481471D01*
X50041142Y-48481471D02*
X49969714Y-48624328D01*
X49969714Y-48624328D02*
X49969714Y-48838614D01*
X49969714Y-48838614D02*
X50041142Y-48981471D01*
X50041142Y-48981471D02*
X50112571Y-49052900D01*
X50112571Y-49052900D02*
X50255428Y-49124328D01*
X50255428Y-49124328D02*
X50826857Y-49124328D01*
X50826857Y-49124328D02*
X50826857Y-47624328D01*
X50826857Y-47624328D02*
X50326857Y-47624328D01*
X50326857Y-47624328D02*
X50184000Y-47695757D01*
X50184000Y-47695757D02*
X50112571Y-47767185D01*
X50112571Y-47767185D02*
X50041142Y-47910042D01*
X50041142Y-47910042D02*
X50041142Y-48052900D01*
X50041142Y-48052900D02*
X50112571Y-48195757D01*
X50112571Y-48195757D02*
X50184000Y-48267185D01*
X50184000Y-48267185D02*
X50326857Y-48338614D01*
X50326857Y-48338614D02*
X50826857Y-48338614D01*
X49112571Y-49124328D02*
X49255428Y-49052900D01*
X49255428Y-49052900D02*
X49326857Y-48981471D01*
X49326857Y-48981471D02*
X49398285Y-48838614D01*
X49398285Y-48838614D02*
X49398285Y-48410042D01*
X49398285Y-48410042D02*
X49326857Y-48267185D01*
X49326857Y-48267185D02*
X49255428Y-48195757D01*
X49255428Y-48195757D02*
X49112571Y-48124328D01*
X49112571Y-48124328D02*
X48898285Y-48124328D01*
X48898285Y-48124328D02*
X48755428Y-48195757D01*
X48755428Y-48195757D02*
X48684000Y-48267185D01*
X48684000Y-48267185D02*
X48612571Y-48410042D01*
X48612571Y-48410042D02*
X48612571Y-48838614D01*
X48612571Y-48838614D02*
X48684000Y-48981471D01*
X48684000Y-48981471D02*
X48755428Y-49052900D01*
X48755428Y-49052900D02*
X48898285Y-49124328D01*
X48898285Y-49124328D02*
X49112571Y-49124328D01*
X48183999Y-48124328D02*
X47612571Y-48124328D01*
X47969714Y-47624328D02*
X47969714Y-48910042D01*
X47969714Y-48910042D02*
X47898285Y-49052900D01*
X47898285Y-49052900D02*
X47755428Y-49124328D01*
X47755428Y-49124328D02*
X47612571Y-49124328D01*
X47041142Y-47624328D02*
X47183999Y-47910042D01*
X46612570Y-48124328D02*
X46041142Y-48124328D01*
X46398285Y-49124328D02*
X46398285Y-47838614D01*
X46398285Y-47838614D02*
X46326856Y-47695757D01*
X46326856Y-47695757D02*
X46183999Y-47624328D01*
X46183999Y-47624328D02*
X46041142Y-47624328D01*
X45541142Y-49124328D02*
X45541142Y-48124328D01*
X45541142Y-47624328D02*
X45612570Y-47695757D01*
X45612570Y-47695757D02*
X45541142Y-47767185D01*
X45541142Y-47767185D02*
X45469713Y-47695757D01*
X45469713Y-47695757D02*
X45541142Y-47624328D01*
X45541142Y-47624328D02*
X45541142Y-47767185D01*
D11*
X51212570Y-50331552D02*
X50974475Y-50998219D01*
X50974475Y-50998219D02*
X50736380Y-50331552D01*
X50164951Y-49998219D02*
X50069713Y-49998219D01*
X50069713Y-49998219D02*
X49974475Y-50045838D01*
X49974475Y-50045838D02*
X49926856Y-50093457D01*
X49926856Y-50093457D02*
X49879237Y-50188695D01*
X49879237Y-50188695D02*
X49831618Y-50379171D01*
X49831618Y-50379171D02*
X49831618Y-50617266D01*
X49831618Y-50617266D02*
X49879237Y-50807742D01*
X49879237Y-50807742D02*
X49926856Y-50902980D01*
X49926856Y-50902980D02*
X49974475Y-50950600D01*
X49974475Y-50950600D02*
X50069713Y-50998219D01*
X50069713Y-50998219D02*
X50164951Y-50998219D01*
X50164951Y-50998219D02*
X50260189Y-50950600D01*
X50260189Y-50950600D02*
X50307808Y-50902980D01*
X50307808Y-50902980D02*
X50355427Y-50807742D01*
X50355427Y-50807742D02*
X50403046Y-50617266D01*
X50403046Y-50617266D02*
X50403046Y-50379171D01*
X50403046Y-50379171D02*
X50355427Y-50188695D01*
X50355427Y-50188695D02*
X50307808Y-50093457D01*
X50307808Y-50093457D02*
X50260189Y-50045838D01*
X50260189Y-50045838D02*
X50164951Y-49998219D01*
X49403046Y-50902980D02*
X49355427Y-50950600D01*
X49355427Y-50950600D02*
X49403046Y-50998219D01*
X49403046Y-50998219D02*
X49450665Y-50950600D01*
X49450665Y-50950600D02*
X49403046Y-50902980D01*
X49403046Y-50902980D02*
X49403046Y-50998219D01*
X49022094Y-49998219D02*
X48403047Y-49998219D01*
X48403047Y-49998219D02*
X48736380Y-50379171D01*
X48736380Y-50379171D02*
X48593523Y-50379171D01*
X48593523Y-50379171D02*
X48498285Y-50426790D01*
X48498285Y-50426790D02*
X48450666Y-50474409D01*
X48450666Y-50474409D02*
X48403047Y-50569647D01*
X48403047Y-50569647D02*
X48403047Y-50807742D01*
X48403047Y-50807742D02*
X48450666Y-50902980D01*
X48450666Y-50902980D02*
X48498285Y-50950600D01*
X48498285Y-50950600D02*
X48593523Y-50998219D01*
X48593523Y-50998219D02*
X48879237Y-50998219D01*
X48879237Y-50998219D02*
X48974475Y-50950600D01*
X48974475Y-50950600D02*
X49022094Y-50902980D01*
D12*
%TO.C,G\u002A\u002A\u002A*%
G36*
X67124355Y-45530654D02*
G01*
X67164657Y-45709264D01*
X67233365Y-45897084D01*
X67338325Y-46007842D01*
X67515423Y-46093153D01*
X67659126Y-46146428D01*
X67802575Y-46166078D01*
X67945826Y-46114001D01*
X68154649Y-45978388D01*
X68279059Y-45895595D01*
X68459708Y-45786902D01*
X68557486Y-45744345D01*
X68647419Y-45790761D01*
X68800879Y-45920832D01*
X68966806Y-46088335D01*
X69099193Y-46246512D01*
X69152031Y-46348602D01*
X69139253Y-46392039D01*
X69055756Y-46548568D01*
X68920836Y-46753021D01*
X68815530Y-46904722D01*
X68743837Y-47051855D01*
X68749837Y-47186248D01*
X68822722Y-47376578D01*
X68894172Y-47522189D01*
X69028275Y-47664469D01*
X69236504Y-47731494D01*
X69439187Y-47768485D01*
X69650915Y-47824998D01*
X69759328Y-47909418D01*
X69799013Y-48056394D01*
X69804555Y-48300575D01*
X69803482Y-48474719D01*
X69781780Y-48646188D01*
X69705230Y-48745668D01*
X69539252Y-48808661D01*
X69249266Y-48870668D01*
X69150870Y-48896091D01*
X68978763Y-49004508D01*
X68853974Y-49221615D01*
X68795709Y-49371118D01*
X68774053Y-49500253D01*
X68806548Y-49636595D01*
X68904173Y-49823396D01*
X69077903Y-50103906D01*
X69115221Y-50168285D01*
X69137748Y-50274333D01*
X69076515Y-50391862D01*
X68914094Y-50570520D01*
X68817293Y-50666385D01*
X68660628Y-50803101D01*
X68569644Y-50856805D01*
X68534767Y-50847062D01*
X68388016Y-50772154D01*
X68186436Y-50647529D01*
X67981079Y-50525864D01*
X67832399Y-50488052D01*
X67698866Y-50529948D01*
X67676222Y-50541744D01*
X67568911Y-50571350D01*
X67490398Y-50504826D01*
X67400826Y-50313186D01*
X67372425Y-50244487D01*
X67246760Y-49946107D01*
X67119209Y-49649524D01*
X67078173Y-49555297D01*
X66995515Y-49342435D01*
X66984942Y-49203832D01*
X67053379Y-49082558D01*
X67207750Y-48921686D01*
X67357227Y-48715924D01*
X67449648Y-48395897D01*
X67422692Y-48067321D01*
X67282117Y-47775101D01*
X67033681Y-47564137D01*
X66968255Y-47532749D01*
X66604555Y-47443316D01*
X66272108Y-47491681D01*
X65999392Y-47661544D01*
X65814879Y-47936609D01*
X65747048Y-48300575D01*
X65760479Y-48527155D01*
X65833003Y-48731559D01*
X65999226Y-48930414D01*
X66251404Y-49182592D01*
X66065982Y-49634235D01*
X65986119Y-49828735D01*
X65865056Y-50123501D01*
X65772924Y-50347738D01*
X65693589Y-50511802D01*
X65607896Y-50564710D01*
X65470019Y-50520627D01*
X65334556Y-50479752D01*
X65191929Y-50513053D01*
X64996050Y-50644230D01*
X64924070Y-50697437D01*
X64750152Y-50811391D01*
X64647724Y-50856805D01*
X64558448Y-50812054D01*
X64403060Y-50683721D01*
X64234153Y-50517489D01*
X64098505Y-50359752D01*
X64042894Y-50256909D01*
X64051288Y-50222127D01*
X64126026Y-50072401D01*
X64253005Y-49872562D01*
X64313320Y-49783820D01*
X64404664Y-49613574D01*
X64414153Y-49466953D01*
X64354443Y-49268599D01*
X64234661Y-49043020D01*
X64022607Y-48890000D01*
X64007416Y-48884649D01*
X63891815Y-48830317D01*
X63829559Y-48743753D01*
X63804238Y-48581619D01*
X63799444Y-48300575D01*
X63799483Y-48254164D01*
X63805879Y-47991997D01*
X63835055Y-47842718D01*
X63903910Y-47762830D01*
X64029344Y-47708832D01*
X64199445Y-47605869D01*
X64365304Y-47372636D01*
X64395591Y-47295176D01*
X64427610Y-47152823D01*
X64404072Y-47008794D01*
X64313189Y-46818835D01*
X64143171Y-46538688D01*
X64077270Y-46426150D01*
X64056687Y-46320646D01*
X64120422Y-46206994D01*
X64283311Y-46031500D01*
X64380920Y-45935985D01*
X64545011Y-45799312D01*
X64647152Y-45746602D01*
X64688492Y-45758666D01*
X64841393Y-45843404D01*
X65040717Y-45982058D01*
X65182350Y-46086333D01*
X65329202Y-46163207D01*
X65466663Y-46160665D01*
X65665119Y-46090989D01*
X65790030Y-46038285D01*
X65924847Y-45945920D01*
X65997637Y-45801874D01*
X66047292Y-45551220D01*
X66113111Y-45135719D01*
X66572727Y-45111577D01*
X67032343Y-45087436D01*
X67124355Y-45530654D01*
G37*
G36*
X57839041Y-51916060D02*
G01*
X57989973Y-52557475D01*
X58091341Y-51999970D01*
X58173775Y-51675985D01*
X58275054Y-51565777D01*
X58391314Y-51709682D01*
X58525697Y-52108485D01*
X58648914Y-52557475D01*
X58745014Y-52009429D01*
X58830385Y-51621927D01*
X58928571Y-51434311D01*
X59040804Y-51493558D01*
X59177265Y-51794607D01*
X59216618Y-51901798D01*
X59312322Y-52095275D01*
X59455419Y-52194739D01*
X59715632Y-52231475D01*
X60162687Y-52236767D01*
X60559260Y-52251899D01*
X60870525Y-52297851D01*
X60988222Y-52365050D01*
X60871149Y-52430598D01*
X60554818Y-52476273D01*
X60096617Y-52493333D01*
X59856753Y-52491113D01*
X59444796Y-52463901D01*
X59205947Y-52395699D01*
X59082253Y-52273976D01*
X59078100Y-52266656D01*
X58997738Y-52191083D01*
X58933639Y-52311343D01*
X58869085Y-52657515D01*
X58795638Y-53005460D01*
X58697265Y-53172905D01*
X58591581Y-53087445D01*
X58486138Y-52747308D01*
X58444918Y-52605886D01*
X58324875Y-52446303D01*
X58214447Y-52519326D01*
X58166000Y-52814040D01*
X58151036Y-53008799D01*
X58068307Y-53175286D01*
X57953430Y-53108572D01*
X57852877Y-52809353D01*
X57779892Y-52541727D01*
X57675311Y-52438818D01*
X57564079Y-52583926D01*
X57456078Y-52972977D01*
X57358485Y-53455454D01*
X57167562Y-52974394D01*
X56976639Y-52493333D01*
X56160209Y-52493333D01*
X55771680Y-52478443D01*
X55461344Y-52432431D01*
X55343778Y-52365050D01*
X55343778Y-52364926D01*
X55462816Y-52299147D01*
X55781115Y-52253718D01*
X56241757Y-52236767D01*
X56242629Y-52236768D01*
X56703077Y-52253773D01*
X57021086Y-52299244D01*
X57139737Y-52365050D01*
X57142926Y-52395269D01*
X57252791Y-52493333D01*
X57301629Y-52455874D01*
X57413080Y-52235745D01*
X57526976Y-51883990D01*
X57688108Y-51274646D01*
X57839041Y-51916060D01*
G37*
G36*
X61115481Y-50155456D02*
G01*
X61064066Y-50429708D01*
X60859939Y-50697374D01*
X60839605Y-50717390D01*
X60586831Y-50900170D01*
X60323090Y-50936500D01*
X60011681Y-50812411D01*
X59615907Y-50513934D01*
X59163753Y-50088030D01*
X60114664Y-50088030D01*
X60120915Y-50220305D01*
X60282667Y-50312525D01*
X60390446Y-50284485D01*
X60452426Y-50113325D01*
X60368557Y-49938511D01*
X60221584Y-49907306D01*
X60114664Y-50088030D01*
X59163753Y-50088030D01*
X59099067Y-50027099D01*
X58166000Y-49100259D01*
X57232933Y-50027099D01*
X57187399Y-50072188D01*
X57143258Y-50113325D01*
X56681327Y-50543822D01*
X56293457Y-50828187D01*
X55987088Y-50939255D01*
X55725522Y-50890994D01*
X55472060Y-50697374D01*
X55448800Y-50673697D01*
X55253689Y-50400882D01*
X55216180Y-50118490D01*
X55228638Y-50088030D01*
X55881330Y-50088030D01*
X55887582Y-50220305D01*
X56049333Y-50312525D01*
X56157112Y-50284485D01*
X56219093Y-50113325D01*
X56135224Y-49938511D01*
X55988250Y-49907306D01*
X55881330Y-50088030D01*
X55228638Y-50088030D01*
X55349571Y-49792347D01*
X55667156Y-49388281D01*
X56182232Y-48872119D01*
X57148970Y-47959566D01*
X56671028Y-47470108D01*
X56433720Y-47236506D01*
X56195655Y-47070463D01*
X55935665Y-47022089D01*
X55543937Y-47050501D01*
X55383113Y-47064749D01*
X54880155Y-47043298D01*
X54448355Y-46888408D01*
X54080490Y-46638198D01*
X53711379Y-46218034D01*
X53488043Y-45745075D01*
X53436277Y-45279116D01*
X53581877Y-44879950D01*
X53643429Y-44804266D01*
X53756301Y-44754967D01*
X53915960Y-44849595D01*
X54184315Y-45111997D01*
X54327083Y-45246942D01*
X54764953Y-45514563D01*
X55176069Y-45555833D01*
X55527039Y-45364473D01*
X55615276Y-45258840D01*
X55730198Y-44884619D01*
X55614534Y-44461126D01*
X55274563Y-44021749D01*
X55114091Y-43863178D01*
X54942958Y-43659745D01*
X54927049Y-43532427D01*
X55042516Y-43419312D01*
X55244506Y-43315224D01*
X55690336Y-43278071D01*
X56174852Y-43426239D01*
X56638251Y-43736555D01*
X57020731Y-44185847D01*
X57175638Y-44493287D01*
X57237195Y-44838289D01*
X57216236Y-45319685D01*
X57187118Y-45731457D01*
X57224303Y-46004049D01*
X57367916Y-46235100D01*
X57657122Y-46532335D01*
X58166000Y-47029241D01*
X58674877Y-46532335D01*
X58960063Y-46239797D01*
X59106082Y-46008492D01*
X59144927Y-45737696D01*
X59115764Y-45319685D01*
X59094202Y-44853787D01*
X59152176Y-44505568D01*
X59311269Y-44185847D01*
X59502315Y-43929462D01*
X59935549Y-43551682D01*
X60417690Y-43325282D01*
X60888935Y-43273434D01*
X61289484Y-43419312D01*
X61365168Y-43480863D01*
X61414467Y-43593736D01*
X61319839Y-43753394D01*
X61057437Y-44021749D01*
X60922492Y-44164517D01*
X60654871Y-44602388D01*
X60613601Y-45013503D01*
X60804961Y-45364473D01*
X60910594Y-45452710D01*
X61284815Y-45567632D01*
X61708308Y-45451968D01*
X62147685Y-45111997D01*
X62306256Y-44951526D01*
X62509689Y-44780393D01*
X62637007Y-44764483D01*
X62750122Y-44879950D01*
X62880741Y-45179668D01*
X62871886Y-45635613D01*
X62685554Y-46112247D01*
X62347542Y-46549776D01*
X61883645Y-46888408D01*
X61769308Y-46943366D01*
X61331069Y-47061167D01*
X60788063Y-47050501D01*
X60472634Y-47023389D01*
X60191231Y-47050068D01*
X59957735Y-47184970D01*
X59662031Y-47469024D01*
X59185147Y-47957397D01*
X60150826Y-48881276D01*
X60217722Y-48945591D01*
X60705881Y-49448158D01*
X61000609Y-49839859D01*
X61100146Y-50113325D01*
X61115481Y-50155456D01*
G37*
%TD*%
M02*
