%TF.GenerationSoftware,KiCad,Pcbnew,8.0.1*%
%TF.CreationDate,2024-05-15T23:39:53+02:00*%
%TF.ProjectId,brain,62726169-6e2e-46b6-9963-61645f706362,rev?*%
%TF.SameCoordinates,Original*%
%TF.FileFunction,Copper,L1,Top*%
%TF.FilePolarity,Positive*%
%FSLAX46Y46*%
G04 Gerber Fmt 4.6, Leading zero omitted, Abs format (unit mm)*
G04 Created by KiCad (PCBNEW 8.0.1) date 2024-05-15 23:39:53*
%MOMM*%
%LPD*%
G01*
G04 APERTURE LIST*
G04 Aperture macros list*
%AMRoundRect*
0 Rectangle with rounded corners*
0 $1 Rounding radius*
0 $2 $3 $4 $5 $6 $7 $8 $9 X,Y pos of 4 corners*
0 Add a 4 corners polygon primitive as box body*
4,1,4,$2,$3,$4,$5,$6,$7,$8,$9,$2,$3,0*
0 Add four circle primitives for the rounded corners*
1,1,$1+$1,$2,$3*
1,1,$1+$1,$4,$5*
1,1,$1+$1,$6,$7*
1,1,$1+$1,$8,$9*
0 Add four rect primitives between the rounded corners*
20,1,$1+$1,$2,$3,$4,$5,0*
20,1,$1+$1,$4,$5,$6,$7,0*
20,1,$1+$1,$6,$7,$8,$9,0*
20,1,$1+$1,$8,$9,$2,$3,0*%
G04 Aperture macros list end*
%TA.AperFunction,SMDPad,CuDef*%
%ADD10R,2.000000X1.350000*%
%TD*%
%TA.AperFunction,SMDPad,CuDef*%
%ADD11RoundRect,0.237500X-0.250000X-0.237500X0.250000X-0.237500X0.250000X0.237500X-0.250000X0.237500X0*%
%TD*%
%TA.AperFunction,SMDPad,CuDef*%
%ADD12RoundRect,0.250001X-0.924999X0.499999X-0.924999X-0.499999X0.924999X-0.499999X0.924999X0.499999X0*%
%TD*%
%TA.AperFunction,SMDPad,CuDef*%
%ADD13R,0.530000X1.040000*%
%TD*%
%TA.AperFunction,SMDPad,CuDef*%
%ADD14R,0.900000X1.500000*%
%TD*%
%TA.AperFunction,ComponentPad*%
%ADD15RoundRect,0.250000X-0.600000X-0.725000X0.600000X-0.725000X0.600000X0.725000X-0.600000X0.725000X0*%
%TD*%
%TA.AperFunction,ComponentPad*%
%ADD16O,1.700000X1.950000*%
%TD*%
%TA.AperFunction,SMDPad,CuDef*%
%ADD17RoundRect,0.375000X-0.625000X-0.375000X0.625000X-0.375000X0.625000X0.375000X-0.625000X0.375000X0*%
%TD*%
%TA.AperFunction,SMDPad,CuDef*%
%ADD18RoundRect,0.500000X-0.500000X-1.400000X0.500000X-1.400000X0.500000X1.400000X-0.500000X1.400000X0*%
%TD*%
%TA.AperFunction,SMDPad,CuDef*%
%ADD19RoundRect,0.237500X-0.300000X-0.237500X0.300000X-0.237500X0.300000X0.237500X-0.300000X0.237500X0*%
%TD*%
%TA.AperFunction,SMDPad,CuDef*%
%ADD20RoundRect,0.237500X-0.237500X0.250000X-0.237500X-0.250000X0.237500X-0.250000X0.237500X0.250000X0*%
%TD*%
%TA.AperFunction,ComponentPad*%
%ADD21R,1.700000X1.700000*%
%TD*%
%TA.AperFunction,ComponentPad*%
%ADD22O,1.700000X1.700000*%
%TD*%
%TA.AperFunction,SMDPad,CuDef*%
%ADD23RoundRect,0.237500X0.237500X-0.250000X0.237500X0.250000X-0.237500X0.250000X-0.237500X-0.250000X0*%
%TD*%
%TA.AperFunction,SMDPad,CuDef*%
%ADD24RoundRect,0.237500X0.237500X-0.300000X0.237500X0.300000X-0.237500X0.300000X-0.237500X-0.300000X0*%
%TD*%
%TA.AperFunction,ComponentPad*%
%ADD25C,5.500000*%
%TD*%
%TA.AperFunction,SMDPad,CuDef*%
%ADD26R,1.500000X0.900000*%
%TD*%
%TA.AperFunction,SMDPad,CuDef*%
%ADD27R,1.050000X1.050000*%
%TD*%
%TA.AperFunction,HeatsinkPad*%
%ADD28C,0.600000*%
%TD*%
%TA.AperFunction,SMDPad,CuDef*%
%ADD29R,4.200000X4.200000*%
%TD*%
%TA.AperFunction,ViaPad*%
%ADD30C,0.600000*%
%TD*%
%TA.AperFunction,Conductor*%
%ADD31C,0.200000*%
%TD*%
G04 APERTURE END LIST*
D10*
%TO.P,SW3,1,1*%
%TO.N,GNDREF*%
X48006000Y-52288000D03*
%TO.P,SW3,2,2*%
%TO.N,sw1*%
X48006000Y-47788000D03*
%TD*%
D11*
%TO.P,R10,1*%
%TO.N,RC*%
X59389000Y-62230000D03*
%TO.P,R10,2*%
%TO.N,Net-(Q2-B)*%
X61214000Y-62230000D03*
%TD*%
D12*
%TO.P,C9,1*%
%TO.N,+3V3*%
X48514000Y-41555000D03*
%TO.P,C9,2*%
%TO.N,GNDREF*%
X48514000Y-44805000D03*
%TD*%
D13*
%TO.P,Q2,1,B*%
%TO.N,Net-(Q2-B)*%
X64361000Y-62380000D03*
%TO.P,Q2,2,E*%
%TO.N,DTR*%
X62461000Y-62380000D03*
%TO.P,Q2,3,C*%
%TO.N,GPIO0*%
X63411000Y-64580000D03*
%TD*%
D14*
%TO.P,D1,1,VDD*%
%TO.N,+5V*%
X49148000Y-66892000D03*
%TO.P,D1,2,DOUT*%
%TO.N,LedOut*%
X45848000Y-66892000D03*
%TO.P,D1,3,VSS*%
%TO.N,GNDREF*%
X45848000Y-71792000D03*
%TO.P,D1,4,DIN*%
%TO.N,STATUS_LED*%
X49148000Y-71792000D03*
%TD*%
D15*
%TO.P,J4,1,Pin_1*%
%TO.N,GNDREF*%
X62798000Y-76183000D03*
D16*
%TO.P,J4,2,Pin_2*%
%TO.N,HREcho*%
X65298000Y-76183000D03*
%TO.P,J4,3,Pin_3*%
%TO.N,HRTrig*%
X67798000Y-76183000D03*
%TO.P,J4,4,Pin_4*%
%TO.N,+5V*%
X70298000Y-76183000D03*
%TD*%
D11*
%TO.P,R11,1*%
%TO.N,DTR*%
X59389000Y-64232000D03*
%TO.P,R11,2*%
%TO.N,Net-(Q3-B)*%
X61214000Y-64232000D03*
%TD*%
D17*
%TO.P,U3,1,ADJ*%
%TO.N,GNDREF*%
X55626000Y-67028000D03*
%TO.P,U3,2,VO*%
%TO.N,+3V3*%
X55626000Y-69328000D03*
D18*
X61926000Y-69328000D03*
D17*
%TO.P,U3,3,VI*%
%TO.N,+5V*%
X55626000Y-71628000D03*
%TD*%
D11*
%TO.P,R1,1*%
%TO.N,+3V3*%
X51308000Y-70866000D03*
%TO.P,R1,2*%
%TO.N,SDA*%
X53133000Y-70866000D03*
%TD*%
D19*
%TO.P,C3,1*%
%TO.N,+5V*%
X55372000Y-62130471D03*
%TO.P,C3,2*%
%TO.N,GNDREF*%
X57097000Y-62130471D03*
%TD*%
D11*
%TO.P,R2,1*%
%TO.N,+3V3*%
X51308000Y-72390000D03*
%TO.P,R2,2*%
%TO.N,SCL*%
X53133000Y-72390000D03*
%TD*%
D10*
%TO.P,SW2,1,1*%
%TO.N,GNDREF*%
X71850000Y-47390000D03*
%TO.P,SW2,2,2*%
%TO.N,EN*%
X71850000Y-51890000D03*
%TD*%
D20*
%TO.P,R15,1*%
%TO.N,+3V3*%
X70358000Y-62587500D03*
%TO.P,R15,2*%
%TO.N,EN*%
X70358000Y-64412500D03*
%TD*%
D21*
%TO.P,J5,1,Pin_1*%
%TO.N,GNDREF*%
X68072000Y-71374000D03*
D22*
%TO.P,J5,2,Pin_2*%
%TO.N,LedOut*%
X70612000Y-71374000D03*
%TO.P,J5,3,Pin_3*%
%TO.N,+5V*%
X73152000Y-71374000D03*
%TD*%
D11*
%TO.P,R14,1*%
%TO.N,+3V3*%
X45419000Y-65024000D03*
%TO.P,R14,2*%
%TO.N,GPIO0*%
X47244000Y-65024000D03*
%TD*%
%TO.P,R3,1*%
%TO.N,sw2*%
X45419000Y-61522942D03*
%TO.P,R3,2*%
%TO.N,+3V3*%
X47244000Y-61522942D03*
%TD*%
%TO.P,R7,1*%
%TO.N,sw1*%
X45419000Y-63246000D03*
%TO.P,R7,2*%
%TO.N,+3V3*%
X47244000Y-63246000D03*
%TD*%
D10*
%TO.P,SW1,1,1*%
%TO.N,GNDREF*%
X48006000Y-54392000D03*
%TO.P,SW1,2,2*%
%TO.N,sw2*%
X48006000Y-58892000D03*
%TD*%
D15*
%TO.P,I2C1,1,Pin_1*%
%TO.N,GNDREF*%
X49396000Y-76200000D03*
D16*
%TO.P,I2C1,2,Pin_2*%
%TO.N,+3V3*%
X51896000Y-76200000D03*
%TO.P,I2C1,3,Pin_3*%
%TO.N,SDA*%
X54396000Y-76200000D03*
%TO.P,I2C1,4,Pin_4*%
%TO.N,SCL*%
X56896000Y-76200000D03*
%TD*%
D21*
%TO.P,J2,1,Pin_1*%
%TO.N,GNDREF*%
X75020000Y-61200000D03*
D22*
%TO.P,J2,2,Pin_2*%
%TO.N,RC*%
X75020000Y-58660000D03*
%TO.P,J2,3,Pin_3*%
%TO.N,+5V*%
X75020000Y-56120000D03*
%TO.P,J2,4,Pin_4*%
%TO.N,RX*%
X75020000Y-53580000D03*
%TO.P,J2,5,Pin_5*%
%TO.N,TX*%
X75020000Y-51040000D03*
%TO.P,J2,6,Pin_6*%
%TO.N,DTR*%
X75020000Y-48500000D03*
%TD*%
D21*
%TO.P,J3,1,Pin_1*%
%TO.N,GNDREF*%
X68072000Y-67564000D03*
D22*
%TO.P,J3,2,Pin_2*%
%TO.N,Net-(J3-Pin_2)*%
X70612000Y-67564000D03*
%TO.P,J3,3,Pin_3*%
%TO.N,Net-(J3-Pin_3)*%
X73152000Y-67564000D03*
%TD*%
D13*
%TO.P,Q3,1,B*%
%TO.N,Net-(Q3-B)*%
X68571000Y-62380000D03*
%TO.P,Q3,2,E*%
%TO.N,RC*%
X66671000Y-62380000D03*
%TO.P,Q3,3,C*%
%TO.N,EN*%
X67621000Y-64580000D03*
%TD*%
D23*
%TO.P,R5,1*%
%TO.N,GPIO0*%
X64770000Y-68834000D03*
%TO.P,R5,2*%
%TO.N,Net-(J3-Pin_2)*%
X64770000Y-67009000D03*
%TD*%
D24*
%TO.P,C7,1*%
%TO.N,+5V*%
X51408500Y-68680500D03*
%TO.P,C7,2*%
%TO.N,GNDREF*%
X51408500Y-66955500D03*
%TD*%
D23*
%TO.P,R4,1*%
%TO.N,EN*%
X64770000Y-72390000D03*
%TO.P,R4,2*%
%TO.N,Net-(J3-Pin_3)*%
X64770000Y-70565000D03*
%TD*%
D25*
%TO.P,B1,*%
%TO.N,*%
X43500000Y-43500000D03*
X43500000Y-76500000D03*
X76500000Y-43500000D03*
X76500000Y-76500000D03*
D21*
%TO.P,B1,1,GND*%
%TO.N,GNDREF*%
X44540000Y-56120000D03*
D22*
%TO.P,B1,2,VCC*%
%TO.N,unconnected-(B1-VCC-Pad2)*%
X44540000Y-53580000D03*
%TO.P,B1,3,5V*%
%TO.N,+5V*%
X44540000Y-51040000D03*
%TO.P,B1,4,3.3V*%
%TO.N,+3V3*%
X44540000Y-48500000D03*
%TO.P,B1,5,AIN1*%
%TO.N,AIN1*%
X42000000Y-48500000D03*
%TO.P,B1,6,AIN2*%
%TO.N,AIN2*%
X42000000Y-51040000D03*
%TO.P,B1,7,BIN2*%
%TO.N,BIN2*%
X42000000Y-53580000D03*
%TO.P,B1,8,BIN1*%
%TO.N,BIN1*%
X42000000Y-56120000D03*
%TO.P,B1,9,DriverFault*%
%TO.N,DRIVER_FAULT*%
X42000000Y-58660000D03*
%TO.P,B1,10,DriverSleep*%
%TO.N,DRIVER_SLEEP*%
X42000000Y-61200000D03*
%TO.P,B1,11,IO4*%
%TO.N,IO4*%
X77560000Y-71360000D03*
%TO.P,B1,12,IO3*%
%TO.N,IO3*%
X77560000Y-68820000D03*
%TO.P,B1,13,IO2*%
%TO.N,IO2*%
X77560000Y-66280000D03*
%TO.P,B1,14,IO1*%
%TO.N,IO1*%
X77560000Y-63740000D03*
%TO.P,B1,15,MISC2*%
%TO.N,MISC2*%
X77560000Y-61200000D03*
%TO.P,B1,16,MISC1*%
%TO.N,MISC1*%
X77560000Y-58660000D03*
%TO.P,B1,17,HRTrig*%
%TO.N,HRTrig*%
X77560000Y-56120000D03*
%TO.P,B1,18,HREcho*%
%TO.N,HREcho*%
X77560000Y-53580000D03*
%TO.P,B1,19,SDA*%
%TO.N,SDA*%
X77560000Y-51040000D03*
%TO.P,B1,20,SCL*%
%TO.N,SCL*%
X77560000Y-48500000D03*
%TD*%
D26*
%TO.P,U4,1,GND*%
%TO.N,GNDREF*%
X51250000Y-41402000D03*
%TO.P,U4,2,VDD*%
%TO.N,+3V3*%
X51250000Y-42672000D03*
%TO.P,U4,3,EN*%
%TO.N,EN*%
X51250000Y-43942000D03*
%TO.P,U4,4,SENSOR_VP*%
%TO.N,unconnected-(U4-SENSOR_VP-Pad4)*%
X51250000Y-45212000D03*
%TO.P,U4,5,SENSOR_VN*%
%TO.N,unconnected-(U4-SENSOR_VN-Pad5)*%
X51250000Y-46482000D03*
%TO.P,U4,6,IO34*%
%TO.N,unconnected-(U4-IO34-Pad6)*%
X51250000Y-47752000D03*
%TO.P,U4,7,IO35*%
%TO.N,sw1*%
X51250000Y-49022000D03*
%TO.P,U4,8,IO32*%
%TO.N,AIN1*%
X51250000Y-50292000D03*
%TO.P,U4,9,IO33*%
%TO.N,AIN2*%
X51250000Y-51562000D03*
%TO.P,U4,10,IO25*%
%TO.N,BIN2*%
X51250000Y-52832000D03*
%TO.P,U4,11,IO26*%
%TO.N,BIN1*%
X51250000Y-54102000D03*
%TO.P,U4,12,IO27*%
%TO.N,DRIVER_FAULT*%
X51250000Y-55372000D03*
%TO.P,U4,13,IO14*%
%TO.N,DRIVER_SLEEP*%
X51250000Y-56642000D03*
%TO.P,U4,14,IO12*%
%TO.N,IO4*%
X51250000Y-57912000D03*
D14*
%TO.P,U4,15,GND*%
%TO.N,GNDREF*%
X54290000Y-59162000D03*
%TO.P,U4,16,IO13*%
%TO.N,IO3*%
X55560000Y-59162000D03*
%TO.P,U4,17,SHD/SD2*%
%TO.N,unconnected-(U4-SHD{slash}SD2-Pad17)*%
X56830000Y-59162000D03*
%TO.P,U4,18,SWP/SD3*%
%TO.N,unconnected-(U4-SWP{slash}SD3-Pad18)*%
X58100000Y-59162000D03*
%TO.P,U4,19,SCS/CMD*%
%TO.N,unconnected-(U4-SCS{slash}CMD-Pad19)*%
X59370000Y-59162000D03*
%TO.P,U4,20,SCK/CLK*%
%TO.N,unconnected-(U4-SCK{slash}CLK-Pad20)*%
X60640000Y-59162000D03*
%TO.P,U4,21,SDO/SD0*%
%TO.N,unconnected-(U4-SDO{slash}SD0-Pad21)*%
X61910000Y-59162000D03*
%TO.P,U4,22,SDI/SD1*%
%TO.N,unconnected-(U4-SDI{slash}SD1-Pad22)*%
X63180000Y-59162000D03*
%TO.P,U4,23,IO15*%
%TO.N,IO2*%
X64450000Y-59162000D03*
%TO.P,U4,24,IO2*%
%TO.N,unconnected-(U4-IO2-Pad24)*%
X65720000Y-59162000D03*
D26*
%TO.P,U4,25,IO0*%
%TO.N,GPIO0*%
X68750000Y-57912000D03*
%TO.P,U4,26,IO4*%
%TO.N,IO1*%
X68750000Y-56642000D03*
%TO.P,U4,27,IO16*%
%TO.N,MISC2*%
X68750000Y-55372000D03*
%TO.P,U4,28,IO17*%
%TO.N,MISC1*%
X68750000Y-54102000D03*
%TO.P,U4,29,IO5*%
%TO.N,STATUS_LED*%
X68750000Y-52832000D03*
%TO.P,U4,30,IO18*%
%TO.N,HRTrig*%
X68750000Y-51562000D03*
%TO.P,U4,31,IO19*%
%TO.N,HREcho*%
X68750000Y-50292000D03*
%TO.P,U4,32,NC*%
%TO.N,unconnected-(U4-NC-Pad32)*%
X68750000Y-49022000D03*
%TO.P,U4,33,IO21*%
%TO.N,SDA*%
X68750000Y-47752000D03*
%TO.P,U4,34,RXD0/IO3*%
%TO.N,RX*%
X68750000Y-46482000D03*
%TO.P,U4,35,TXD0/IO1*%
%TO.N,TX*%
X68750000Y-45212000D03*
%TO.P,U4,36,IO22*%
%TO.N,SCL*%
X68750000Y-43942000D03*
%TO.P,U4,37,IO23*%
%TO.N,sw2*%
X68750000Y-42672000D03*
%TO.P,U4,38,GND*%
%TO.N,GNDREF*%
X68750000Y-41402000D03*
D27*
%TO.P,U4,39,GND*%
X57795000Y-47217000D03*
D28*
X57795000Y-47979500D03*
D27*
X57795000Y-48742000D03*
D28*
X57795000Y-49504500D03*
D27*
X57795000Y-50267000D03*
D28*
X58557500Y-47217000D03*
X58557500Y-48742000D03*
X58557500Y-50267000D03*
D27*
X59320000Y-47217000D03*
D28*
X59320000Y-47979500D03*
D27*
X59320000Y-48742000D03*
D29*
X59320000Y-48742000D03*
D28*
X59320000Y-49504500D03*
D27*
X59320000Y-50267000D03*
D28*
X60082500Y-47217000D03*
X60082500Y-48742000D03*
X60082500Y-50267000D03*
D27*
X60845000Y-47217000D03*
D28*
X60845000Y-47979500D03*
D27*
X60845000Y-48742000D03*
D28*
X60845000Y-49504500D03*
D27*
X60845000Y-50267000D03*
%TD*%
D19*
%TO.P,C5,1*%
%TO.N,+3V3*%
X55372000Y-64262000D03*
%TO.P,C5,2*%
%TO.N,GNDREF*%
X57097000Y-64262000D03*
%TD*%
D30*
%TO.N,+5V*%
X59387620Y-73611620D03*
X52182000Y-62664622D03*
X50856841Y-63145605D03*
%TO.N,GNDREF*%
X68230000Y-69380000D03*
X71490000Y-42150000D03*
X63380000Y-78650000D03*
X66050000Y-72820000D03*
X58240000Y-63080000D03*
X45700000Y-69260000D03*
X47610000Y-55570000D03*
X72030000Y-48850000D03*
X55410000Y-42500000D03*
X57770000Y-67310000D03*
X47910000Y-43170000D03*
X64323751Y-74390000D03*
X55460000Y-65550000D03*
X46610000Y-52330000D03*
X55020000Y-60800000D03*
X66430000Y-71030000D03*
X51830000Y-64830000D03*
%TO.N,+3V3*%
X61633290Y-66674214D03*
X52832000Y-66040000D03*
X46990000Y-41402000D03*
X51054000Y-60452000D03*
X68904459Y-63671803D03*
%TO.N,RX*%
X70120000Y-46710000D03*
X70610000Y-50440000D03*
%TO.N,DTR*%
X62170000Y-63580000D03*
X73940000Y-49280000D03*
%TO.N,RC*%
X69975380Y-61339335D03*
X62738000Y-60960000D03*
X70025380Y-57482620D03*
%TO.N,EN*%
X56896000Y-56642000D03*
X66030000Y-56500000D03*
X54102000Y-53848000D03*
X69134620Y-64880620D03*
X66058598Y-66944000D03*
X70450000Y-52802690D03*
%TO.N,GPIO0*%
X63574524Y-61961955D03*
X67620620Y-59790620D03*
%TO.N,Net-(Q3-B)*%
X67818000Y-63246000D03*
X62992000Y-66294000D03*
%TO.N,IO4*%
X49784000Y-58928000D03*
%TD*%
D31*
%TO.N,+5V*%
X55372000Y-62130471D02*
X54837849Y-62664622D01*
X54837849Y-62664622D02*
X52182000Y-62664622D01*
X49833500Y-65906500D02*
X49833500Y-64522499D01*
X49148000Y-66592000D02*
X49833500Y-65906500D01*
X54534500Y-62967971D02*
X55372000Y-62130471D01*
X52767408Y-68680500D02*
X51408500Y-68680500D01*
X55626000Y-71628000D02*
X55626000Y-71539092D01*
X50856841Y-63499158D02*
X50856841Y-63145605D01*
X51408500Y-68680500D02*
X51883500Y-68680500D01*
X49833500Y-64522499D02*
X50856841Y-63499158D01*
X57404000Y-71628000D02*
X59387620Y-73611620D01*
X55626000Y-71539092D02*
X52767408Y-68680500D01*
X54534500Y-66029500D02*
X54534500Y-62967971D01*
X55626000Y-71628000D02*
X57404000Y-71628000D01*
X49148000Y-66892000D02*
X49148000Y-66592000D01*
X51883500Y-68680500D02*
X54534500Y-66029500D01*
%TO.N,+3V3*%
X48361000Y-41402000D02*
X48514000Y-41555000D01*
X51825222Y-67843000D02*
X50941778Y-67843000D01*
X49983058Y-61522942D02*
X47244000Y-61522942D01*
X52832000Y-66836222D02*
X51825222Y-67843000D01*
X55626000Y-69328000D02*
X61926000Y-69328000D01*
X50633500Y-68151278D02*
X50633500Y-71969500D01*
X47244000Y-63246000D02*
X47244000Y-61522942D01*
X51054000Y-60452000D02*
X49983058Y-61522942D01*
X56926000Y-68028000D02*
X55626000Y-69328000D01*
X54102000Y-72058594D02*
X54102000Y-70580778D01*
X46990000Y-41402000D02*
X48361000Y-41402000D01*
X70358000Y-62587500D02*
X69988762Y-62587500D01*
X45419000Y-65024000D02*
X45466000Y-65024000D01*
X50941778Y-67843000D02*
X50633500Y-68151278D01*
X61926000Y-69328000D02*
X61926000Y-66966924D01*
X54102000Y-70580778D02*
X53371222Y-69850000D01*
X55372000Y-64262000D02*
X56926000Y-65816000D01*
X45466000Y-65024000D02*
X47244000Y-63246000D01*
X56926000Y-65816000D02*
X56926000Y-68028000D01*
X55626000Y-69328000D02*
X56626000Y-69328000D01*
X61926000Y-66966924D02*
X61633290Y-66674214D01*
X49631000Y-42672000D02*
X48514000Y-41555000D01*
X59656859Y-74261620D02*
X56305026Y-74261620D01*
X69988762Y-62587500D02*
X68904459Y-63671803D01*
X56305026Y-74261620D02*
X54102000Y-72058594D01*
X51250000Y-42672000D02*
X49631000Y-42672000D01*
X52832000Y-66040000D02*
X52832000Y-66836222D01*
X50633500Y-71969500D02*
X51308000Y-72644000D01*
X51308000Y-70866000D02*
X51308000Y-72644000D01*
X60037620Y-73880859D02*
X59656859Y-74261620D01*
X53371222Y-69850000D02*
X52324000Y-69850000D01*
X52324000Y-69850000D02*
X51308000Y-70866000D01*
X60037620Y-72739620D02*
X60037620Y-73880859D01*
X56626000Y-69328000D02*
X60037620Y-72739620D01*
%TO.N,LedOut*%
X49361256Y-78275000D02*
X58377000Y-78275000D01*
X68246000Y-73740000D02*
X70612000Y-71374000D01*
X46844000Y-75757744D02*
X49361256Y-78275000D01*
X58377000Y-78275000D02*
X62912000Y-73740000D01*
X45848000Y-66892000D02*
X46844000Y-67888000D01*
X46844000Y-67888000D02*
X46844000Y-75757744D01*
X62912000Y-73740000D02*
X68246000Y-73740000D01*
%TO.N,STATUS_LED*%
X51532000Y-62933861D02*
X51532000Y-62395383D01*
X58985686Y-52832000D02*
X68750000Y-52832000D01*
X51759912Y-63161773D02*
X51532000Y-62933861D01*
X53540000Y-58277686D02*
X58985686Y-52832000D01*
X51912761Y-62014622D02*
X52266314Y-62014622D01*
X50233500Y-64688185D02*
X51759912Y-63161773D01*
X52266314Y-62014622D02*
X52550466Y-61730471D01*
X50233500Y-70706500D02*
X50233500Y-64688185D01*
X52550466Y-61730471D02*
X53191214Y-61730471D01*
X49148000Y-71792000D02*
X50233500Y-70706500D01*
X53540000Y-61381685D02*
X53540000Y-58277686D01*
X53191214Y-61730471D02*
X53540000Y-61381685D01*
X51532000Y-62395383D02*
X51912761Y-62014622D01*
%TO.N,SDA*%
X71628000Y-49680000D02*
X69700000Y-47752000D01*
X52100629Y-61614622D02*
X52384781Y-61330471D01*
X74209239Y-49930000D02*
X73670761Y-49930000D01*
X74459239Y-49680000D02*
X74209239Y-49930000D01*
X73670761Y-49930000D02*
X73420761Y-49680000D01*
X52117000Y-71882000D02*
X53133000Y-70866000D01*
X52095500Y-73899500D02*
X52095500Y-71882000D01*
X73420761Y-49680000D02*
X71628000Y-49680000D01*
X59290000Y-51962000D02*
X62031371Y-51962000D01*
X54396000Y-76200000D02*
X52095500Y-73899500D01*
X48298000Y-72741998D02*
X48298000Y-66058000D01*
X53025528Y-61330471D02*
X53140000Y-61216000D01*
X48298000Y-66058000D02*
X49433500Y-64922500D01*
X69700000Y-47752000D02*
X68750000Y-47752000D01*
X52384781Y-61330471D02*
X53025528Y-61330471D01*
X76200000Y-49680000D02*
X74459239Y-49680000D01*
X49433500Y-63649707D02*
X51468585Y-61614622D01*
X51468585Y-61614622D02*
X52100629Y-61614622D01*
X53140000Y-61216000D02*
X53140000Y-58112000D01*
X54396000Y-76200000D02*
X52321000Y-74125000D01*
X62031371Y-51962000D02*
X66241371Y-47752000D01*
X52095500Y-71882000D02*
X52117000Y-71882000D01*
X53140000Y-58112000D02*
X59290000Y-51962000D01*
X77560000Y-51040000D02*
X76200000Y-49680000D01*
X49681002Y-74125000D02*
X48298000Y-72741998D01*
X66241371Y-47752000D02*
X68750000Y-47752000D01*
X52321000Y-74125000D02*
X49681002Y-74125000D01*
X49433500Y-64922500D02*
X49433500Y-63649707D01*
%TO.N,SCL*%
X52740000Y-59777522D02*
X52740000Y-57780629D01*
X53340000Y-72644000D02*
X56896000Y-76200000D01*
X75234315Y-46550000D02*
X75484315Y-46550000D01*
X67800000Y-43942000D02*
X68750000Y-43942000D01*
X75484315Y-46550000D02*
X75524315Y-46590000D01*
X47898000Y-72907683D02*
X47898000Y-65640000D01*
X53246000Y-75615686D02*
X52155314Y-74525000D01*
X49033500Y-64504500D02*
X49033500Y-63484022D01*
X55621000Y-77475000D02*
X53919654Y-77475000D01*
X49033500Y-63484022D02*
X52740000Y-59777522D01*
X56896000Y-76200000D02*
X55621000Y-77475000D01*
X75650000Y-46590000D02*
X77560000Y-48500000D01*
X75524315Y-46590000D02*
X75650000Y-46590000D01*
X49515316Y-74525000D02*
X47898000Y-72907683D01*
X47898000Y-65640000D02*
X49033500Y-64504500D01*
X53133000Y-72644000D02*
X53340000Y-72644000D01*
X53246000Y-76801346D02*
X53246000Y-75615686D01*
X52740000Y-57780629D02*
X58958629Y-51562000D01*
X61865685Y-51562000D02*
X67700000Y-45727685D01*
X67700000Y-44042000D02*
X67800000Y-43942000D01*
X72626315Y-43942000D02*
X75234315Y-46550000D01*
X58958629Y-51562000D02*
X61865685Y-51562000D01*
X52155314Y-74525000D02*
X49515316Y-74525000D01*
X68750000Y-43942000D02*
X72626315Y-43942000D01*
X67700000Y-45727685D02*
X67700000Y-44042000D01*
X53919654Y-77475000D02*
X53246000Y-76801346D01*
%TO.N,RX*%
X70650000Y-50480000D02*
X70610000Y-50440000D01*
X75020000Y-53580000D02*
X73150000Y-51710000D01*
X73150000Y-51000000D02*
X72630000Y-50480000D01*
X72630000Y-50480000D02*
X70650000Y-50480000D01*
X70120000Y-46710000D02*
X68978000Y-46710000D01*
X68978000Y-46710000D02*
X68750000Y-46482000D01*
X73150000Y-51710000D02*
X73150000Y-51000000D01*
%TO.N,DTR*%
X74720000Y-48500000D02*
X73940000Y-49280000D01*
X61089000Y-65932000D02*
X61810315Y-65932000D01*
X62722761Y-66944000D02*
X63261239Y-66944000D01*
X63595000Y-66610239D02*
X63595000Y-66047314D01*
X62342000Y-66563239D02*
X62722761Y-66944000D01*
X59389000Y-64232000D02*
X61089000Y-65932000D01*
X61810315Y-65932000D02*
X62342000Y-66463685D01*
X62738000Y-62657000D02*
X62461000Y-62380000D01*
X63595000Y-66047314D02*
X62738000Y-65190314D01*
X75020000Y-48500000D02*
X74720000Y-48500000D01*
X62170000Y-63580000D02*
X62170000Y-62671000D01*
X62738000Y-65190314D02*
X62738000Y-62657000D01*
X62170000Y-62671000D02*
X62461000Y-62380000D01*
X63261239Y-66944000D02*
X63595000Y-66610239D01*
X62342000Y-66463685D02*
X62342000Y-66563239D01*
%TO.N,TX*%
X76170000Y-47990000D02*
X75130000Y-46950000D01*
X77083654Y-49650000D02*
X76170000Y-48736346D01*
X78710000Y-51516346D02*
X78710000Y-50340000D01*
X75130000Y-46950000D02*
X73740000Y-46950000D01*
X75020000Y-51040000D02*
X75933654Y-51040000D01*
X78036346Y-52190000D02*
X78710000Y-51516346D01*
X77083654Y-52190000D02*
X78036346Y-52190000D01*
X75933654Y-51040000D02*
X77083654Y-52190000D01*
X73740000Y-46950000D02*
X72002000Y-45212000D01*
X78710000Y-50340000D02*
X78020000Y-49650000D01*
X78020000Y-49650000D02*
X77083654Y-49650000D01*
X76170000Y-48736346D02*
X76170000Y-47990000D01*
X72002000Y-45212000D02*
X68750000Y-45212000D01*
%TO.N,RC*%
X70025380Y-61289335D02*
X69975380Y-61339335D01*
X70025380Y-58770000D02*
X70025380Y-57482620D01*
X70025380Y-59025620D02*
X70025380Y-58770000D01*
X59389000Y-62230000D02*
X60659000Y-60960000D01*
X60659000Y-60960000D02*
X62738000Y-60960000D01*
X66671000Y-62380000D02*
X70025380Y-59025620D01*
X70025380Y-58770000D02*
X70025380Y-61289335D01*
%TO.N,Net-(J3-Pin_2)*%
X64770000Y-67009000D02*
X64770000Y-66521500D01*
X69462000Y-66414000D02*
X70612000Y-67564000D01*
X65378500Y-65913000D02*
X66167000Y-65913000D01*
X66668000Y-66414000D02*
X69462000Y-66414000D01*
X64770000Y-66521500D02*
X65378500Y-65913000D01*
X66167000Y-65913000D02*
X66668000Y-66414000D01*
%TO.N,Net-(J3-Pin_3)*%
X64770000Y-70565000D02*
X65111000Y-70224000D01*
X65111000Y-70224000D02*
X70492000Y-70224000D01*
X70492000Y-70224000D02*
X73152000Y-67564000D01*
%TO.N,HREcho*%
X79248000Y-72390000D02*
X79248000Y-55268000D01*
X77560000Y-53580000D02*
X76170000Y-52190000D01*
X73550000Y-51254314D02*
X73550000Y-50834314D01*
X72088547Y-76244548D02*
X75181095Y-73152000D01*
X69252000Y-49790000D02*
X68750000Y-50292000D01*
X73550000Y-50834314D02*
X72795685Y-50080000D01*
X66573000Y-77458000D02*
X71545095Y-77458000D01*
X75181095Y-73152000D02*
X78486000Y-73152000D01*
X71545095Y-77458000D02*
X72088547Y-76914547D01*
X74485686Y-52190000D02*
X73550000Y-51254314D01*
X79248000Y-55268000D02*
X77560000Y-53580000D01*
X72795685Y-50080000D02*
X71169239Y-50080000D01*
X65298000Y-76183000D02*
X66573000Y-77458000D01*
X71169239Y-50080000D02*
X70879239Y-49790000D01*
X70879239Y-49790000D02*
X69252000Y-49790000D01*
X76170000Y-52190000D02*
X74485686Y-52190000D01*
X72088547Y-76914547D02*
X72088547Y-76244548D01*
X78486000Y-73152000D02*
X79248000Y-72390000D01*
%TO.N,HRTrig*%
X69700000Y-51562000D02*
X68750000Y-51562000D01*
X67798000Y-76183000D02*
X71229000Y-72752000D01*
X69800000Y-51662000D02*
X69700000Y-51562000D01*
X76410000Y-54970000D02*
X71640761Y-54970000D01*
X78710000Y-71836346D02*
X78710000Y-57270000D01*
X71640761Y-54970000D02*
X69800000Y-53129239D01*
X77560000Y-56120000D02*
X76410000Y-54970000D01*
X69800000Y-53129239D02*
X69800000Y-51662000D01*
X71229000Y-72752000D02*
X77794346Y-72752000D01*
X77794346Y-72752000D02*
X78710000Y-71836346D01*
X78710000Y-57270000D02*
X77560000Y-56120000D01*
%TO.N,sw2*%
X53228000Y-56657239D02*
X53228000Y-56557685D01*
X46990000Y-59146000D02*
X49082761Y-59146000D01*
X58643685Y-51142000D02*
X61719999Y-51142000D01*
X67800000Y-42672000D02*
X68750000Y-42672000D01*
X61938000Y-48534000D02*
X67800000Y-42672000D01*
X45419000Y-61522942D02*
X45419000Y-60717000D01*
X49514761Y-59578000D02*
X51362315Y-59578000D01*
X49082761Y-59146000D02*
X49514761Y-59578000D01*
X61719999Y-51142000D02*
X61938000Y-50923999D01*
X53228000Y-56557685D02*
X58643685Y-51142000D01*
X61938000Y-50923999D02*
X61938000Y-48534000D01*
X52340000Y-57545239D02*
X53228000Y-56657239D01*
X51362315Y-59578000D02*
X52340000Y-58600315D01*
X52340000Y-58600315D02*
X52340000Y-57545239D01*
X45419000Y-60717000D02*
X46990000Y-59146000D01*
%TO.N,EN*%
X63995000Y-71615000D02*
X63995000Y-69929778D01*
X65338629Y-60212000D02*
X66470000Y-60212000D01*
X66470000Y-58112000D02*
X65000000Y-56642000D01*
X67621000Y-64580000D02*
X65726000Y-62685000D01*
X65252500Y-69621500D02*
X66058598Y-68815402D01*
X63995000Y-69929778D02*
X64303278Y-69621500D01*
X65726000Y-60726945D02*
X65274842Y-60275787D01*
X70358000Y-64412500D02*
X69602740Y-64412500D01*
X64303278Y-69621500D02*
X65252500Y-69621500D01*
X54102000Y-45844000D02*
X52200000Y-43942000D01*
X66058598Y-68815402D02*
X66058598Y-66944000D01*
X67621000Y-64580000D02*
X68834000Y-64580000D01*
X54102000Y-53848000D02*
X54102000Y-45844000D01*
X52200000Y-43942000D02*
X51250000Y-43942000D01*
X65000000Y-56642000D02*
X64910000Y-56642000D01*
X64910000Y-56642000D02*
X56896000Y-56642000D01*
X64770000Y-72390000D02*
X63995000Y-71615000D01*
X68834000Y-64580000D02*
X69134620Y-64880620D01*
X66030000Y-56500000D02*
X65888000Y-56642000D01*
X65274842Y-60275787D02*
X65338629Y-60212000D01*
X70937310Y-52802690D02*
X70450000Y-52802690D01*
X65726000Y-62685000D02*
X65726000Y-60726945D01*
X71850000Y-51890000D02*
X70937310Y-52802690D01*
X69602740Y-64412500D02*
X69134620Y-64880620D01*
X66470000Y-60212000D02*
X66470000Y-58112000D01*
X65888000Y-56642000D02*
X64910000Y-56642000D01*
%TO.N,GPIO0*%
X56999000Y-77875000D02*
X63595000Y-71279000D01*
X50746000Y-76908000D02*
X51713000Y-77875000D01*
X63411000Y-62125479D02*
X63574524Y-61961955D01*
X68750000Y-58661240D02*
X67620620Y-59790620D01*
X50746000Y-75130000D02*
X50746000Y-76908000D01*
X68750000Y-57912000D02*
X68750000Y-58661240D01*
X49349630Y-74925000D02*
X50541000Y-74925000D01*
X63995000Y-67571500D02*
X63995000Y-65164000D01*
X47244000Y-65024000D02*
X47244000Y-72819370D01*
X64770000Y-68346500D02*
X63995000Y-67571500D01*
X63595000Y-69534000D02*
X64295000Y-68834000D01*
X63411000Y-64580000D02*
X63411000Y-62125479D01*
X64295000Y-68834000D02*
X64770000Y-68834000D01*
X63595000Y-71279000D02*
X63595000Y-69534000D01*
X64770000Y-68834000D02*
X64770000Y-68346500D01*
X63995000Y-65164000D02*
X63411000Y-64580000D01*
X50541000Y-74925000D02*
X50746000Y-75130000D01*
X51713000Y-77875000D02*
X56999000Y-77875000D01*
X47244000Y-72819370D02*
X49349630Y-74925000D01*
%TO.N,sw1*%
X51250000Y-49022000D02*
X49240000Y-49022000D01*
X46990000Y-48042000D02*
X46298000Y-47350000D01*
X41296000Y-47350000D02*
X40640000Y-48006000D01*
X47970000Y-49022000D02*
X51250000Y-49022000D01*
X46990000Y-48042000D02*
X47970000Y-49022000D01*
X46298000Y-47350000D02*
X41296000Y-47350000D01*
X40640000Y-61976000D02*
X41910000Y-63246000D01*
X49240000Y-49022000D02*
X48006000Y-47788000D01*
X40640000Y-48006000D02*
X40640000Y-61976000D01*
X41910000Y-63246000D02*
X45419000Y-63246000D01*
%TO.N,Net-(Q2-B)*%
X63661000Y-60960000D02*
X63061000Y-61560000D01*
X61884000Y-61560000D02*
X61214000Y-62230000D01*
X64361000Y-62380000D02*
X64361000Y-61660000D01*
X64361000Y-61660000D02*
X63661000Y-60960000D01*
X63061000Y-61560000D02*
X61884000Y-61560000D01*
%TO.N,Net-(Q3-B)*%
X61214000Y-64232000D02*
X62992000Y-66010000D01*
X62992000Y-66010000D02*
X62992000Y-66294000D01*
X67818000Y-63246000D02*
X67818000Y-63133000D01*
X67818000Y-63133000D02*
X68571000Y-62380000D01*
%TO.N,IO2*%
X76357919Y-66280000D02*
X77560000Y-66280000D01*
X68764761Y-65430000D02*
X68865381Y-65530620D01*
X65326000Y-63670000D02*
X67086000Y-65430000D01*
X75608539Y-65530620D02*
X76357919Y-66280000D01*
X67086000Y-65430000D02*
X68764761Y-65430000D01*
X68865381Y-65530620D02*
X75608539Y-65530620D01*
X64450000Y-60112000D02*
X65326000Y-60988000D01*
X65326000Y-60988000D02*
X65326000Y-63670000D01*
X64450000Y-59162000D02*
X64450000Y-60112000D01*
%TO.N,IO4*%
X51250000Y-57912000D02*
X50800000Y-57912000D01*
X50800000Y-57912000D02*
X49784000Y-58928000D01*
%TO.N,DRIVER_FAULT*%
X47087315Y-56970000D02*
X48636315Y-56970000D01*
X42000000Y-58660000D02*
X45397314Y-58660000D01*
X48636315Y-56970000D02*
X50234315Y-55372000D01*
X50234315Y-55372000D02*
X51250000Y-55372000D01*
X45397314Y-58660000D02*
X47087315Y-56970000D01*
%TO.N,MISC2*%
X74190000Y-60050000D02*
X69512000Y-55372000D01*
X76410000Y-60050000D02*
X74190000Y-60050000D01*
X69512000Y-55372000D02*
X68750000Y-55372000D01*
X77560000Y-61200000D02*
X76410000Y-60050000D01*
%TO.N,AIN2*%
X43150000Y-52190000D02*
X42000000Y-51040000D01*
X50300000Y-51562000D02*
X49030000Y-50292000D01*
X46946000Y-50292000D02*
X45048000Y-52190000D01*
X45048000Y-52190000D02*
X43150000Y-52190000D01*
X51250000Y-51562000D02*
X50300000Y-51562000D01*
X49030000Y-50292000D02*
X46946000Y-50292000D01*
%TO.N,BIN1*%
X42000000Y-56120000D02*
X43150000Y-57270000D01*
X46921628Y-56570000D02*
X48252000Y-56570000D01*
X43150000Y-57270000D02*
X46221628Y-57270000D01*
X48252000Y-56570000D02*
X50720000Y-54102000D01*
X50720000Y-54102000D02*
X51250000Y-54102000D01*
X46221628Y-57270000D02*
X46921628Y-56570000D01*
%TO.N,MISC1*%
X77560000Y-58660000D02*
X76410000Y-57510000D01*
X76410000Y-57510000D02*
X72890000Y-57510000D01*
X69482000Y-54102000D02*
X68750000Y-54102000D01*
X72890000Y-57510000D02*
X69482000Y-54102000D01*
%TO.N,IO3*%
X55560000Y-60112000D02*
X55988314Y-60540314D01*
X55988314Y-60540314D02*
X62238447Y-60540314D01*
X55560000Y-59162000D02*
X55560000Y-60112000D01*
X64916000Y-61550001D02*
X64926000Y-61560001D01*
X64926000Y-63852314D02*
X66948000Y-65874314D01*
X66972314Y-66014000D02*
X74754000Y-66014000D01*
X66948000Y-65989686D02*
X66972314Y-66014000D01*
X63919686Y-60306000D02*
X64916000Y-61302314D01*
X74754000Y-66014000D02*
X77560000Y-68820000D01*
X64926000Y-61560001D02*
X64926000Y-63852314D01*
X66948000Y-65874314D02*
X66948000Y-65989686D01*
X62238447Y-60540314D02*
X62472761Y-60306000D01*
X62472761Y-60306000D02*
X63919686Y-60306000D01*
X64916000Y-61302314D02*
X64916000Y-61550001D01*
%TO.N,BIN2*%
X50300000Y-52832000D02*
X49715000Y-53417000D01*
X49715000Y-53417000D02*
X46329346Y-53417000D01*
X45016346Y-54730000D02*
X43150000Y-54730000D01*
X51250000Y-52832000D02*
X50300000Y-52832000D01*
X42000000Y-53580000D02*
X43150000Y-54730000D01*
X46329346Y-53417000D02*
X45016346Y-54730000D01*
%TO.N,IO1*%
X70824722Y-61800000D02*
X70625380Y-61800000D01*
X71133000Y-62108278D02*
X70824722Y-61800000D01*
X70142000Y-56642000D02*
X68750000Y-56642000D01*
X70625380Y-61800000D02*
X70625380Y-57125380D01*
X71133000Y-62743000D02*
X71133000Y-62108278D01*
X77560000Y-63740000D02*
X72130000Y-63740000D01*
X70625380Y-57125380D02*
X70142000Y-56642000D01*
X72130000Y-63740000D02*
X71133000Y-62743000D01*
%TO.N,DRIVER_SLEEP*%
X43423000Y-61200000D02*
X42000000Y-61200000D01*
X49572000Y-57370000D02*
X47253000Y-57370000D01*
X50300000Y-56642000D02*
X49572000Y-57370000D01*
X47253000Y-57370000D02*
X43423000Y-61200000D01*
X51250000Y-56642000D02*
X50300000Y-56642000D01*
%TO.N,AIN1*%
X42000000Y-48500000D02*
X43390000Y-49890000D01*
X50848000Y-49890000D02*
X51250000Y-50292000D01*
X43390000Y-49890000D02*
X50848000Y-49890000D01*
%TD*%
%TA.AperFunction,Conductor*%
%TO.N,GNDREF*%
G36*
X73178945Y-76105896D02*
G01*
X73234879Y-76147767D01*
X73259296Y-76213232D01*
X73259430Y-76228791D01*
X73244726Y-76499997D01*
X73244726Y-76500002D01*
X73263808Y-76851954D01*
X73305503Y-77106283D01*
X73318865Y-77187792D01*
X73320833Y-77199793D01*
X73320834Y-77199796D01*
X73415126Y-77539408D01*
X73415127Y-77539410D01*
X73545588Y-77866844D01*
X73545597Y-77866862D01*
X73710695Y-78178269D01*
X73908498Y-78470006D01*
X73908505Y-78470016D01*
X74056048Y-78643716D01*
X74136686Y-78738650D01*
X74392580Y-78981046D01*
X74673182Y-79194354D01*
X74797660Y-79269250D01*
X74844955Y-79320679D01*
X74856937Y-79389514D01*
X74829802Y-79453899D01*
X74772165Y-79493393D01*
X74733731Y-79499500D01*
X45266269Y-79499500D01*
X45199230Y-79479815D01*
X45153475Y-79427011D01*
X45143531Y-79357853D01*
X45172556Y-79294297D01*
X45202340Y-79269250D01*
X45326818Y-79194354D01*
X45607420Y-78981046D01*
X45863314Y-78738650D01*
X46091501Y-78470008D01*
X46289305Y-78178269D01*
X46454407Y-77866854D01*
X46584871Y-77539414D01*
X46679168Y-77199788D01*
X46736191Y-76851957D01*
X46739293Y-76794737D01*
X46762578Y-76728864D01*
X46817781Y-76686034D01*
X46887377Y-76679849D01*
X46949268Y-76712273D01*
X46950786Y-76713765D01*
X48992540Y-78755520D01*
X48992542Y-78755521D01*
X48992546Y-78755524D01*
X49129465Y-78834573D01*
X49129472Y-78834577D01*
X49282199Y-78875501D01*
X49282201Y-78875501D01*
X49447910Y-78875501D01*
X49447926Y-78875500D01*
X58290331Y-78875500D01*
X58290347Y-78875501D01*
X58297943Y-78875501D01*
X58456054Y-78875501D01*
X58456057Y-78875501D01*
X58608785Y-78834577D01*
X58658904Y-78805639D01*
X58745716Y-78755520D01*
X58857520Y-78643716D01*
X58857520Y-78643714D01*
X58867728Y-78633507D01*
X58867729Y-78633504D01*
X61236323Y-76264911D01*
X61297642Y-76231429D01*
X61367334Y-76236413D01*
X61423267Y-76278285D01*
X61447684Y-76343749D01*
X61448000Y-76352595D01*
X61448000Y-76957971D01*
X61448001Y-76957987D01*
X61458494Y-77060697D01*
X61513641Y-77227119D01*
X61513643Y-77227124D01*
X61605684Y-77376345D01*
X61729654Y-77500315D01*
X61878875Y-77592356D01*
X61878880Y-77592358D01*
X62045302Y-77647505D01*
X62045309Y-77647506D01*
X62148019Y-77657999D01*
X62547999Y-77657999D01*
X62548000Y-77657998D01*
X62548000Y-76587145D01*
X62614657Y-76625630D01*
X62735465Y-76658000D01*
X62860535Y-76658000D01*
X62981343Y-76625630D01*
X63048000Y-76587145D01*
X63048000Y-77657999D01*
X63447972Y-77657999D01*
X63447986Y-77657998D01*
X63550697Y-77647505D01*
X63717119Y-77592358D01*
X63717124Y-77592356D01*
X63866345Y-77500315D01*
X63990317Y-77376343D01*
X64085815Y-77221516D01*
X64137763Y-77174791D01*
X64206725Y-77163568D01*
X64270808Y-77191412D01*
X64279035Y-77198931D01*
X64418213Y-77338109D01*
X64590179Y-77463048D01*
X64590181Y-77463049D01*
X64590184Y-77463051D01*
X64779588Y-77559557D01*
X64981757Y-77625246D01*
X65191713Y-77658500D01*
X65191714Y-77658500D01*
X65404286Y-77658500D01*
X65404287Y-77658500D01*
X65614243Y-77625246D01*
X65750873Y-77580851D01*
X65820708Y-77578856D01*
X65876867Y-77611102D01*
X66088139Y-77822374D01*
X66088149Y-77822385D01*
X66092479Y-77826715D01*
X66092480Y-77826716D01*
X66204284Y-77938520D01*
X66291095Y-77988639D01*
X66291097Y-77988641D01*
X66341213Y-78017576D01*
X66341215Y-78017577D01*
X66493942Y-78058500D01*
X66493943Y-78058500D01*
X71466034Y-78058500D01*
X71466038Y-78058501D01*
X71624153Y-78058500D01*
X71776880Y-78017577D01*
X71826999Y-77988639D01*
X71913811Y-77938520D01*
X72025615Y-77826716D01*
X72025615Y-77826714D01*
X72035823Y-77816507D01*
X72035825Y-77816504D01*
X72457261Y-77395068D01*
X72457263Y-77395067D01*
X72569067Y-77283263D01*
X72648124Y-77146331D01*
X72649878Y-77139785D01*
X72658856Y-77106283D01*
X72671070Y-77060697D01*
X72689048Y-76993604D01*
X72689048Y-76835489D01*
X72689048Y-76827894D01*
X72689047Y-76827876D01*
X72689047Y-76544644D01*
X72708732Y-76477605D01*
X72725362Y-76456967D01*
X73047934Y-76134395D01*
X73109254Y-76100912D01*
X73178945Y-76105896D01*
G37*
%TD.AperFunction*%
%TA.AperFunction,Conductor*%
G36*
X68634547Y-74292769D02*
G01*
X68677739Y-74347689D01*
X68684383Y-74417242D01*
X68652368Y-74479345D01*
X68650304Y-74481459D01*
X68376867Y-74754896D01*
X68315544Y-74788381D01*
X68250868Y-74785146D01*
X68114240Y-74740753D01*
X67952957Y-74715208D01*
X67904287Y-74707500D01*
X67691713Y-74707500D01*
X67643042Y-74715208D01*
X67481760Y-74740753D01*
X67279585Y-74806444D01*
X67090179Y-74902951D01*
X66918213Y-75027890D01*
X66767894Y-75178209D01*
X66767890Y-75178214D01*
X66648318Y-75342793D01*
X66592989Y-75385459D01*
X66523375Y-75391438D01*
X66461580Y-75358833D01*
X66447682Y-75342793D01*
X66328109Y-75178214D01*
X66328105Y-75178209D01*
X66177786Y-75027890D01*
X66005820Y-74902951D01*
X65816414Y-74806444D01*
X65816413Y-74806443D01*
X65816412Y-74806443D01*
X65614243Y-74740754D01*
X65614241Y-74740753D01*
X65614240Y-74740753D01*
X65452957Y-74715208D01*
X65404287Y-74707500D01*
X65191713Y-74707500D01*
X65143042Y-74715208D01*
X64981760Y-74740753D01*
X64779585Y-74806444D01*
X64590179Y-74902951D01*
X64418215Y-75027889D01*
X64279035Y-75167069D01*
X64217712Y-75200553D01*
X64148020Y-75195569D01*
X64092087Y-75153697D01*
X64085815Y-75144484D01*
X63990315Y-74989654D01*
X63866345Y-74865684D01*
X63717124Y-74773643D01*
X63717119Y-74773641D01*
X63550697Y-74718494D01*
X63550690Y-74718493D01*
X63447986Y-74708000D01*
X63092598Y-74708000D01*
X63025559Y-74688315D01*
X62979804Y-74635511D01*
X62969860Y-74566353D01*
X62998885Y-74502797D01*
X63004917Y-74496319D01*
X63124417Y-74376819D01*
X63185740Y-74343334D01*
X63212098Y-74340500D01*
X68159331Y-74340500D01*
X68159347Y-74340501D01*
X68166943Y-74340501D01*
X68325054Y-74340501D01*
X68325057Y-74340501D01*
X68477785Y-74299577D01*
X68500620Y-74286392D01*
X68568520Y-74269918D01*
X68634547Y-74292769D01*
G37*
%TD.AperFunction*%
%TA.AperFunction,Conductor*%
G36*
X40705703Y-62891384D02*
G01*
X40712181Y-62897416D01*
X41425139Y-63610374D01*
X41425149Y-63610385D01*
X41429479Y-63614715D01*
X41429480Y-63614716D01*
X41541284Y-63726520D01*
X41603211Y-63762273D01*
X41622229Y-63773253D01*
X41678212Y-63805576D01*
X41678214Y-63805576D01*
X41678215Y-63805577D01*
X41830942Y-63846500D01*
X41830943Y-63846500D01*
X44456599Y-63846500D01*
X44523638Y-63866185D01*
X44562138Y-63905404D01*
X44586159Y-63944349D01*
X44689129Y-64047319D01*
X44722614Y-64108642D01*
X44717630Y-64178334D01*
X44689129Y-64222681D01*
X44586161Y-64325648D01*
X44495593Y-64472481D01*
X44495591Y-64472486D01*
X44480288Y-64518669D01*
X44441326Y-64636247D01*
X44441326Y-64636248D01*
X44441325Y-64636248D01*
X44431000Y-64737315D01*
X44431000Y-65310669D01*
X44431001Y-65310687D01*
X44441325Y-65411752D01*
X44495592Y-65575515D01*
X44495593Y-65575518D01*
X44516206Y-65608936D01*
X44586160Y-65722350D01*
X44708150Y-65844340D01*
X44844359Y-65928354D01*
X44891082Y-65980301D01*
X44902551Y-66047145D01*
X44897500Y-66094130D01*
X44897500Y-67689870D01*
X44897501Y-67689876D01*
X44903908Y-67749483D01*
X44954202Y-67884328D01*
X44954206Y-67884335D01*
X45040452Y-67999544D01*
X45040455Y-67999547D01*
X45155664Y-68085793D01*
X45155671Y-68085797D01*
X45290517Y-68136091D01*
X45290516Y-68136091D01*
X45297444Y-68136835D01*
X45350127Y-68142500D01*
X46119500Y-68142499D01*
X46186539Y-68162183D01*
X46232294Y-68214987D01*
X46243500Y-68266499D01*
X46243500Y-70418000D01*
X46223815Y-70485039D01*
X46171011Y-70530794D01*
X46119500Y-70542000D01*
X46098000Y-70542000D01*
X46098000Y-73042000D01*
X46119500Y-73042000D01*
X46186539Y-73061685D01*
X46232294Y-73114489D01*
X46243500Y-73166000D01*
X46243500Y-74371415D01*
X46223815Y-74438454D01*
X46171011Y-74484209D01*
X46101853Y-74494153D01*
X46038297Y-74465128D01*
X46024992Y-74451691D01*
X45863314Y-74261350D01*
X45820210Y-74220520D01*
X45607420Y-74018954D01*
X45607413Y-74018948D01*
X45607410Y-74018946D01*
X45410297Y-73869105D01*
X45326818Y-73805646D01*
X45256525Y-73763352D01*
X45024802Y-73623928D01*
X45024789Y-73623921D01*
X44704911Y-73475929D01*
X44704906Y-73475928D01*
X44704903Y-73475927D01*
X44704901Y-73475926D01*
X44543946Y-73421694D01*
X44370880Y-73363381D01*
X44026643Y-73287608D01*
X43676238Y-73249500D01*
X43676237Y-73249500D01*
X43323763Y-73249500D01*
X43323761Y-73249500D01*
X42973356Y-73287608D01*
X42629119Y-73363381D01*
X42295093Y-73475928D01*
X42295088Y-73475929D01*
X41975210Y-73623921D01*
X41975197Y-73623928D01*
X41673184Y-73805644D01*
X41392589Y-74018946D01*
X41392580Y-74018954D01*
X41136685Y-74261350D01*
X40908505Y-74529983D01*
X40908497Y-74529993D01*
X40727133Y-74797486D01*
X40673219Y-74841927D01*
X40603837Y-74850165D01*
X40541015Y-74819584D01*
X40504699Y-74759894D01*
X40500500Y-74727899D01*
X40500500Y-72042000D01*
X44898000Y-72042000D01*
X44898000Y-72589844D01*
X44904401Y-72649372D01*
X44904403Y-72649379D01*
X44954645Y-72784086D01*
X44954649Y-72784093D01*
X45040809Y-72899187D01*
X45040812Y-72899190D01*
X45155906Y-72985350D01*
X45155913Y-72985354D01*
X45290620Y-73035596D01*
X45290627Y-73035598D01*
X45350155Y-73041999D01*
X45350172Y-73042000D01*
X45598000Y-73042000D01*
X45598000Y-72042000D01*
X44898000Y-72042000D01*
X40500500Y-72042000D01*
X40500500Y-71542000D01*
X44898000Y-71542000D01*
X45598000Y-71542000D01*
X45598000Y-70542000D01*
X45350155Y-70542000D01*
X45290627Y-70548401D01*
X45290620Y-70548403D01*
X45155913Y-70598645D01*
X45155906Y-70598649D01*
X45040812Y-70684809D01*
X45040809Y-70684812D01*
X44954649Y-70799906D01*
X44954645Y-70799913D01*
X44904403Y-70934620D01*
X44904401Y-70934627D01*
X44898000Y-70994155D01*
X44898000Y-71542000D01*
X40500500Y-71542000D01*
X40500500Y-62985097D01*
X40520185Y-62918058D01*
X40572989Y-62872303D01*
X40642147Y-62862359D01*
X40705703Y-62891384D01*
G37*
%TD.AperFunction*%
%TA.AperFunction,Conductor*%
G36*
X66665039Y-70844185D02*
G01*
X66710794Y-70896989D01*
X66722000Y-70948500D01*
X66722000Y-71124000D01*
X67638988Y-71124000D01*
X67606075Y-71181007D01*
X67572000Y-71308174D01*
X67572000Y-71439826D01*
X67606075Y-71566993D01*
X67638988Y-71624000D01*
X66722000Y-71624000D01*
X66722000Y-72271844D01*
X66728401Y-72331372D01*
X66728403Y-72331379D01*
X66778645Y-72466086D01*
X66778649Y-72466093D01*
X66864809Y-72581187D01*
X66864812Y-72581190D01*
X66979906Y-72667350D01*
X66979913Y-72667354D01*
X67114620Y-72717596D01*
X67114627Y-72717598D01*
X67174155Y-72723999D01*
X67174172Y-72724000D01*
X67822000Y-72724000D01*
X67822000Y-71807012D01*
X67879007Y-71839925D01*
X68006174Y-71874000D01*
X68137826Y-71874000D01*
X68264993Y-71839925D01*
X68322000Y-71807012D01*
X68322000Y-72763403D01*
X68302315Y-72830442D01*
X68285681Y-72851084D01*
X68033584Y-73103181D01*
X67972261Y-73136666D01*
X67945903Y-73139500D01*
X65788675Y-73139500D01*
X65721636Y-73119815D01*
X65675881Y-73067011D01*
X65665937Y-72997853D01*
X65679222Y-72961202D01*
X65677854Y-72960564D01*
X65680902Y-72954025D01*
X65680908Y-72954016D01*
X65735174Y-72790253D01*
X65745500Y-72689177D01*
X65745499Y-72090824D01*
X65744292Y-72079011D01*
X65735174Y-71989747D01*
X65716602Y-71933702D01*
X65680908Y-71825984D01*
X65590340Y-71679150D01*
X65476371Y-71565181D01*
X65442886Y-71503858D01*
X65447870Y-71434166D01*
X65476371Y-71389819D01*
X65506191Y-71359999D01*
X65590340Y-71275850D01*
X65680908Y-71129016D01*
X65735174Y-70965253D01*
X65738173Y-70935898D01*
X65764569Y-70871206D01*
X65821750Y-70831054D01*
X65861531Y-70824500D01*
X66598000Y-70824500D01*
X66665039Y-70844185D01*
G37*
%TD.AperFunction*%
%TA.AperFunction,Conductor*%
G36*
X68322000Y-68914000D02*
G01*
X68969828Y-68914000D01*
X68969844Y-68913999D01*
X69029372Y-68907598D01*
X69029379Y-68907596D01*
X69164086Y-68857354D01*
X69164093Y-68857350D01*
X69279187Y-68771190D01*
X69279190Y-68771187D01*
X69365350Y-68656093D01*
X69365354Y-68656086D01*
X69414422Y-68524529D01*
X69456293Y-68468595D01*
X69521757Y-68444178D01*
X69590030Y-68459030D01*
X69618285Y-68480181D01*
X69740599Y-68602495D01*
X69815600Y-68655011D01*
X69934165Y-68738032D01*
X69934167Y-68738033D01*
X69934170Y-68738035D01*
X70148337Y-68837903D01*
X70376592Y-68899063D01*
X70547319Y-68914000D01*
X70611999Y-68919659D01*
X70612000Y-68919659D01*
X70612001Y-68919659D01*
X70639843Y-68917223D01*
X70708343Y-68930989D01*
X70758526Y-68979604D01*
X70774460Y-69047633D01*
X70751085Y-69113477D01*
X70738332Y-69128432D01*
X70279584Y-69587181D01*
X70218261Y-69620666D01*
X70191903Y-69623500D01*
X66399098Y-69623500D01*
X66332059Y-69603815D01*
X66286304Y-69551011D01*
X66276360Y-69481853D01*
X66305385Y-69418297D01*
X66311417Y-69411819D01*
X66539118Y-69184118D01*
X66618175Y-69047186D01*
X66659099Y-68894459D01*
X66659099Y-68864839D01*
X66678784Y-68797800D01*
X66731588Y-68752045D01*
X66800746Y-68742101D01*
X66856461Y-68767545D01*
X66857712Y-68765875D01*
X66979906Y-68857350D01*
X66979913Y-68857354D01*
X67114620Y-68907596D01*
X67114627Y-68907598D01*
X67174155Y-68913999D01*
X67174172Y-68914000D01*
X67822000Y-68914000D01*
X67822000Y-67997012D01*
X67879007Y-68029925D01*
X68006174Y-68064000D01*
X68137826Y-68064000D01*
X68264993Y-68029925D01*
X68322000Y-67997012D01*
X68322000Y-68914000D01*
G37*
%TD.AperFunction*%
%TA.AperFunction,Conductor*%
G36*
X58743820Y-61160499D02*
G01*
X58789575Y-61213303D01*
X58799519Y-61282461D01*
X58770494Y-61346017D01*
X58741881Y-61370350D01*
X58703268Y-61394167D01*
X58678148Y-61409661D01*
X58556161Y-61531648D01*
X58465593Y-61678481D01*
X58465591Y-61678486D01*
X58444274Y-61742818D01*
X58411326Y-61842247D01*
X58411326Y-61842248D01*
X58411325Y-61842248D01*
X58401000Y-61943315D01*
X58401000Y-62516669D01*
X58401001Y-62516687D01*
X58411325Y-62617752D01*
X58465592Y-62781515D01*
X58465593Y-62781518D01*
X58494770Y-62828821D01*
X58556160Y-62928350D01*
X58678150Y-63050340D01*
X58799941Y-63125461D01*
X58846665Y-63177409D01*
X58857888Y-63246372D01*
X58830044Y-63310454D01*
X58799942Y-63336537D01*
X58727485Y-63381229D01*
X58678148Y-63411661D01*
X58556161Y-63533648D01*
X58465593Y-63680481D01*
X58465591Y-63680486D01*
X58450698Y-63725431D01*
X58411326Y-63844247D01*
X58411326Y-63844248D01*
X58411325Y-63844248D01*
X58401000Y-63945315D01*
X58401000Y-64518669D01*
X58401001Y-64518687D01*
X58411325Y-64619752D01*
X58465592Y-64783515D01*
X58465593Y-64783518D01*
X58483963Y-64813300D01*
X58556160Y-64930350D01*
X58678150Y-65052340D01*
X58824984Y-65142908D01*
X58988747Y-65197174D01*
X59089823Y-65207500D01*
X59463902Y-65207499D01*
X59530941Y-65227183D01*
X59551583Y-65243818D01*
X60604139Y-66296374D01*
X60604149Y-66296385D01*
X60608479Y-66300715D01*
X60608480Y-66300716D01*
X60720284Y-66412520D01*
X60772113Y-66442443D01*
X60778534Y-66446150D01*
X60826750Y-66496714D01*
X60839976Y-66565320D01*
X60839757Y-66567421D01*
X60827725Y-66674210D01*
X60827725Y-66674217D01*
X60847920Y-66853463D01*
X60847922Y-66853471D01*
X60888603Y-66969731D01*
X60892164Y-67039510D01*
X60857435Y-67100137D01*
X60849922Y-67106787D01*
X60714890Y-67216890D01*
X60586304Y-67374590D01*
X60492089Y-67554954D01*
X60453486Y-67689870D01*
X60436429Y-67749483D01*
X60436114Y-67750583D01*
X60436113Y-67750586D01*
X60425500Y-67869966D01*
X60425500Y-68603500D01*
X60405815Y-68670539D01*
X60353011Y-68716294D01*
X60301500Y-68727500D01*
X57375098Y-68727500D01*
X57308059Y-68707815D01*
X57262304Y-68655011D01*
X57252360Y-68585853D01*
X57281385Y-68522297D01*
X57287417Y-68515819D01*
X57344206Y-68459030D01*
X57406520Y-68396716D01*
X57485577Y-68259784D01*
X57526501Y-68107057D01*
X57526501Y-67948942D01*
X57526501Y-67941347D01*
X57526500Y-67941329D01*
X57526500Y-65905059D01*
X57526501Y-65905046D01*
X57526501Y-65736945D01*
X57526501Y-65736943D01*
X57485577Y-65584215D01*
X57437369Y-65500717D01*
X57406520Y-65447284D01*
X57403918Y-65444682D01*
X57402425Y-65441948D01*
X57401574Y-65440839D01*
X57401747Y-65440706D01*
X57370433Y-65383359D01*
X57375417Y-65313667D01*
X57417289Y-65257734D01*
X57478998Y-65233643D01*
X57547151Y-65226680D01*
X57710800Y-65172453D01*
X57710811Y-65172448D01*
X57857534Y-65081947D01*
X57857538Y-65081944D01*
X57979444Y-64960038D01*
X57979447Y-64960034D01*
X58069948Y-64813311D01*
X58069953Y-64813300D01*
X58124180Y-64649652D01*
X58134499Y-64548654D01*
X58134500Y-64548641D01*
X58134500Y-64512000D01*
X56971000Y-64512000D01*
X56903961Y-64492315D01*
X56858206Y-64439511D01*
X56847000Y-64388000D01*
X56847000Y-64136000D01*
X56866685Y-64068961D01*
X56919489Y-64023206D01*
X56971000Y-64012000D01*
X58134499Y-64012000D01*
X58134499Y-63975360D01*
X58134498Y-63975345D01*
X58124180Y-63874347D01*
X58069953Y-63710699D01*
X58069948Y-63710688D01*
X57979447Y-63563965D01*
X57979444Y-63563961D01*
X57857538Y-63442055D01*
X57857534Y-63442052D01*
X57710811Y-63351551D01*
X57710800Y-63351546D01*
X57597315Y-63313941D01*
X57539870Y-63274168D01*
X57513047Y-63209652D01*
X57525362Y-63140877D01*
X57572905Y-63089677D01*
X57597316Y-63078529D01*
X57710798Y-63040925D01*
X57710811Y-63040919D01*
X57857534Y-62950418D01*
X57857538Y-62950415D01*
X57979444Y-62828509D01*
X57979447Y-62828505D01*
X58069948Y-62681782D01*
X58069953Y-62681771D01*
X58124180Y-62518123D01*
X58134499Y-62417125D01*
X58134500Y-62417112D01*
X58134500Y-62380471D01*
X56971000Y-62380471D01*
X56903961Y-62360786D01*
X56858206Y-62307982D01*
X56847000Y-62256471D01*
X56847000Y-62004471D01*
X56866685Y-61937432D01*
X56919489Y-61891677D01*
X56971000Y-61880471D01*
X58134499Y-61880471D01*
X58134499Y-61843831D01*
X58134498Y-61843816D01*
X58124180Y-61742818D01*
X58069953Y-61579170D01*
X58069948Y-61579159D01*
X57979447Y-61432436D01*
X57979444Y-61432432D01*
X57899507Y-61352495D01*
X57866022Y-61291172D01*
X57871006Y-61221480D01*
X57912878Y-61165547D01*
X57978342Y-61141130D01*
X57987188Y-61140814D01*
X58676781Y-61140814D01*
X58743820Y-61160499D01*
G37*
%TD.AperFunction*%
%TA.AperFunction,Conductor*%
G36*
X55513941Y-65257184D02*
G01*
X55534583Y-65273818D01*
X55869701Y-65608936D01*
X55903186Y-65670259D01*
X55898202Y-65739951D01*
X55876000Y-65774498D01*
X55876000Y-67154000D01*
X55856315Y-67221039D01*
X55803511Y-67266794D01*
X55752000Y-67278000D01*
X55500000Y-67278000D01*
X55432961Y-67258315D01*
X55387206Y-67205511D01*
X55376000Y-67154000D01*
X55376000Y-65778000D01*
X55259000Y-65778000D01*
X55191961Y-65758315D01*
X55146206Y-65705511D01*
X55135000Y-65654000D01*
X55135000Y-65361499D01*
X55154685Y-65294460D01*
X55207489Y-65248705D01*
X55259000Y-65237499D01*
X55446902Y-65237499D01*
X55513941Y-65257184D01*
G37*
%TD.AperFunction*%
%TA.AperFunction,Conductor*%
G36*
X53877039Y-63284807D02*
G01*
X53922794Y-63337611D01*
X53934000Y-63389122D01*
X53934000Y-65729402D01*
X53914315Y-65796441D01*
X53897681Y-65817083D01*
X53818255Y-65896509D01*
X53756932Y-65929994D01*
X53687240Y-65925010D01*
X53631307Y-65883138D01*
X53613532Y-65849782D01*
X53557789Y-65690478D01*
X53461816Y-65537738D01*
X53334262Y-65410184D01*
X53181523Y-65314211D01*
X53011254Y-65254631D01*
X53011249Y-65254630D01*
X52832004Y-65234435D01*
X52831996Y-65234435D01*
X52652750Y-65254630D01*
X52652745Y-65254631D01*
X52482476Y-65314211D01*
X52329737Y-65410184D01*
X52202184Y-65537737D01*
X52106210Y-65690478D01*
X52046629Y-65860753D01*
X52045080Y-65867541D01*
X52042127Y-65866866D01*
X52019830Y-65919010D01*
X51961988Y-65958202D01*
X51892138Y-65959900D01*
X51885168Y-65957815D01*
X51796153Y-65928319D01*
X51695154Y-65918000D01*
X51658500Y-65918000D01*
X51658500Y-67081500D01*
X51638815Y-67148539D01*
X51586011Y-67194294D01*
X51534500Y-67205500D01*
X51282500Y-67205500D01*
X51215461Y-67185815D01*
X51169706Y-67133011D01*
X51158500Y-67081500D01*
X51158500Y-65918000D01*
X51121861Y-65918000D01*
X51121843Y-65918001D01*
X51020845Y-65928319D01*
X50997000Y-65936220D01*
X50927171Y-65938620D01*
X50867131Y-65902886D01*
X50835941Y-65840364D01*
X50834000Y-65818513D01*
X50834000Y-64988282D01*
X50853685Y-64921243D01*
X50870319Y-64900601D01*
X51548240Y-64222681D01*
X52240432Y-63530489D01*
X52250434Y-63513163D01*
X52300998Y-63464947D01*
X52343939Y-63451940D01*
X52361255Y-63449990D01*
X52531522Y-63390411D01*
X52684262Y-63294438D01*
X52684267Y-63294432D01*
X52687097Y-63292177D01*
X52689275Y-63291287D01*
X52690158Y-63290733D01*
X52690255Y-63290887D01*
X52751783Y-63265767D01*
X52764412Y-63265122D01*
X53810000Y-63265122D01*
X53877039Y-63284807D01*
G37*
%TD.AperFunction*%
%TA.AperFunction,Conductor*%
G36*
X71431083Y-58140764D02*
G01*
X71437561Y-58146796D01*
X73633681Y-60342916D01*
X73667166Y-60404239D01*
X73670000Y-60430597D01*
X73670000Y-60950000D01*
X74586988Y-60950000D01*
X74554075Y-61007007D01*
X74520000Y-61134174D01*
X74520000Y-61265826D01*
X74554075Y-61392993D01*
X74586988Y-61450000D01*
X73670000Y-61450000D01*
X73670000Y-62097844D01*
X73676401Y-62157372D01*
X73676403Y-62157379D01*
X73726645Y-62292086D01*
X73726649Y-62292093D01*
X73812809Y-62407187D01*
X73812812Y-62407190D01*
X73927906Y-62493350D01*
X73927913Y-62493354D01*
X74062620Y-62543596D01*
X74062627Y-62543598D01*
X74122155Y-62549999D01*
X74122172Y-62550000D01*
X74770000Y-62550000D01*
X74770000Y-61633012D01*
X74827007Y-61665925D01*
X74954174Y-61700000D01*
X75085826Y-61700000D01*
X75212993Y-61665925D01*
X75270000Y-61633012D01*
X75270000Y-62550000D01*
X75917828Y-62550000D01*
X75917844Y-62549999D01*
X75977372Y-62543598D01*
X75977379Y-62543596D01*
X76112086Y-62493354D01*
X76112093Y-62493350D01*
X76227187Y-62407190D01*
X76227190Y-62407187D01*
X76313350Y-62292093D01*
X76313354Y-62292086D01*
X76362422Y-62160529D01*
X76404293Y-62104595D01*
X76469757Y-62080178D01*
X76538030Y-62095030D01*
X76566285Y-62116181D01*
X76688597Y-62238493D01*
X76688603Y-62238498D01*
X76874158Y-62368425D01*
X76917783Y-62423002D01*
X76924977Y-62492500D01*
X76893454Y-62554855D01*
X76874158Y-62571575D01*
X76688597Y-62701505D01*
X76521506Y-62868596D01*
X76385965Y-63062170D01*
X76385962Y-63062175D01*
X76383289Y-63067909D01*
X76337115Y-63120346D01*
X76270909Y-63139500D01*
X72430097Y-63139500D01*
X72363058Y-63119815D01*
X72342416Y-63103181D01*
X71769819Y-62530584D01*
X71736334Y-62469261D01*
X71733500Y-62442903D01*
X71733500Y-62197337D01*
X71733501Y-62197324D01*
X71733501Y-62029223D01*
X71733501Y-62029221D01*
X71692577Y-61876493D01*
X71657940Y-61816500D01*
X71657940Y-61816499D01*
X71613524Y-61739568D01*
X71613521Y-61739564D01*
X71613520Y-61739562D01*
X71501716Y-61627758D01*
X71501715Y-61627757D01*
X71497385Y-61623427D01*
X71497374Y-61623417D01*
X71312312Y-61438355D01*
X71312310Y-61438352D01*
X71262199Y-61388241D01*
X71228714Y-61326918D01*
X71225880Y-61300560D01*
X71225880Y-58234477D01*
X71245565Y-58167438D01*
X71298369Y-58121683D01*
X71367527Y-58111739D01*
X71431083Y-58140764D01*
G37*
%TD.AperFunction*%
%TA.AperFunction,Conductor*%
G36*
X54483039Y-58931685D02*
G01*
X54528794Y-58984489D01*
X54540000Y-59036000D01*
X54540000Y-60412000D01*
X54787828Y-60412000D01*
X54787844Y-60411999D01*
X54847372Y-60405598D01*
X54847375Y-60405597D01*
X54880949Y-60393075D01*
X54950640Y-60388089D01*
X54967619Y-60393075D01*
X55003928Y-60406618D01*
X55059861Y-60448490D01*
X55067979Y-60460796D01*
X55079480Y-60480716D01*
X55079482Y-60480718D01*
X55198349Y-60599585D01*
X55198355Y-60599590D01*
X55503453Y-60904688D01*
X55503474Y-60904711D01*
X55542053Y-60943290D01*
X55575538Y-61004613D01*
X55570554Y-61074305D01*
X55528682Y-61130238D01*
X55463218Y-61154655D01*
X55454372Y-61154971D01*
X55022830Y-61154971D01*
X55022812Y-61154972D01*
X54921747Y-61165296D01*
X54757984Y-61219563D01*
X54757981Y-61219564D01*
X54611148Y-61310132D01*
X54489161Y-61432119D01*
X54398593Y-61578952D01*
X54398591Y-61578957D01*
X54387155Y-61613469D01*
X54344326Y-61742718D01*
X54344326Y-61742719D01*
X54344325Y-61742719D01*
X54334000Y-61843786D01*
X54334000Y-61940122D01*
X54314315Y-62007161D01*
X54261511Y-62052916D01*
X54210000Y-62064122D01*
X54006161Y-62064122D01*
X53939122Y-62044437D01*
X53893367Y-61991633D01*
X53883423Y-61922475D01*
X53912448Y-61858919D01*
X53918480Y-61852441D01*
X53961310Y-61809611D01*
X54020520Y-61750401D01*
X54049619Y-61700000D01*
X54080841Y-61645922D01*
X54080844Y-61645913D01*
X54080850Y-61645905D01*
X54099577Y-61613470D01*
X54140501Y-61460742D01*
X54140501Y-61302628D01*
X54140501Y-61295033D01*
X54140500Y-61295015D01*
X54140500Y-59036000D01*
X54160185Y-58968961D01*
X54212989Y-58923206D01*
X54264500Y-58912000D01*
X54416000Y-58912000D01*
X54483039Y-58931685D01*
G37*
%TD.AperFunction*%
%TA.AperFunction,Conductor*%
G36*
X48199039Y-54037185D02*
G01*
X48244794Y-54089989D01*
X48256000Y-54141500D01*
X48256000Y-55577640D01*
X48276686Y-55615524D01*
X48271702Y-55685216D01*
X48243201Y-55729563D01*
X48039584Y-55933181D01*
X47978261Y-55966666D01*
X47951903Y-55969500D01*
X46842568Y-55969500D01*
X46801647Y-55980464D01*
X46801647Y-55980465D01*
X46764379Y-55990451D01*
X46689842Y-56010423D01*
X46689837Y-56010426D01*
X46552918Y-56089475D01*
X46552910Y-56089481D01*
X46101681Y-56540711D01*
X46040358Y-56574196D01*
X45970666Y-56569212D01*
X45914733Y-56527340D01*
X45890316Y-56461876D01*
X45890000Y-56453030D01*
X45890000Y-56370000D01*
X44973012Y-56370000D01*
X45005925Y-56312993D01*
X45040000Y-56185826D01*
X45040000Y-56054174D01*
X45005925Y-55927007D01*
X44973012Y-55870000D01*
X45890000Y-55870000D01*
X45890000Y-55222172D01*
X45889999Y-55222155D01*
X45883598Y-55162627D01*
X45883596Y-55162620D01*
X45833354Y-55027913D01*
X45833352Y-55027911D01*
X45784000Y-54961984D01*
X45759583Y-54896520D01*
X45774434Y-54828247D01*
X45795579Y-54800001D01*
X45953580Y-54642000D01*
X46506000Y-54642000D01*
X46506000Y-55114844D01*
X46512401Y-55174372D01*
X46512403Y-55174379D01*
X46562645Y-55309086D01*
X46562649Y-55309093D01*
X46648809Y-55424187D01*
X46648812Y-55424190D01*
X46763906Y-55510350D01*
X46763913Y-55510354D01*
X46898620Y-55560596D01*
X46898627Y-55560598D01*
X46958155Y-55566999D01*
X46958172Y-55567000D01*
X47756000Y-55567000D01*
X47756000Y-54642000D01*
X46506000Y-54642000D01*
X45953580Y-54642000D01*
X46417262Y-54178317D01*
X46478584Y-54144834D01*
X46504942Y-54142000D01*
X47756000Y-54142000D01*
X47756000Y-54141500D01*
X47775685Y-54074461D01*
X47828489Y-54028706D01*
X47880000Y-54017500D01*
X48132000Y-54017500D01*
X48199039Y-54037185D01*
G37*
%TD.AperFunction*%
%TA.AperFunction,Conductor*%
G36*
X67532729Y-40520185D02*
G01*
X67578484Y-40572989D01*
X67588428Y-40642147D01*
X67564955Y-40698813D01*
X67556647Y-40709909D01*
X67556645Y-40709913D01*
X67506403Y-40844620D01*
X67506401Y-40844627D01*
X67500000Y-40904155D01*
X67500000Y-41152000D01*
X70000000Y-41152000D01*
X70000000Y-40904172D01*
X69999999Y-40904155D01*
X69993598Y-40844627D01*
X69993596Y-40844620D01*
X69943354Y-40709913D01*
X69943352Y-40709909D01*
X69935045Y-40698813D01*
X69910626Y-40633349D01*
X69925476Y-40565076D01*
X69974881Y-40515669D01*
X70034310Y-40500500D01*
X74733731Y-40500500D01*
X74800770Y-40520185D01*
X74846525Y-40572989D01*
X74856469Y-40642147D01*
X74827444Y-40705703D01*
X74797660Y-40730749D01*
X74673182Y-40805646D01*
X74586207Y-40871761D01*
X74392589Y-41018946D01*
X74392580Y-41018954D01*
X74136685Y-41261350D01*
X73908505Y-41529983D01*
X73908498Y-41529993D01*
X73710695Y-41821730D01*
X73545597Y-42133137D01*
X73545588Y-42133155D01*
X73415127Y-42460589D01*
X73415126Y-42460591D01*
X73320834Y-42800203D01*
X73320833Y-42800206D01*
X73263809Y-43148045D01*
X73248906Y-43422889D01*
X73225621Y-43488764D01*
X73170417Y-43531593D01*
X73100821Y-43537777D01*
X73038930Y-43505354D01*
X73037407Y-43503856D01*
X72995032Y-43461481D01*
X72995031Y-43461480D01*
X72908219Y-43411360D01*
X72908219Y-43411359D01*
X72908215Y-43411358D01*
X72858100Y-43382423D01*
X72705372Y-43341499D01*
X72547258Y-43341499D01*
X72539662Y-43341499D01*
X72539646Y-43341500D01*
X70120094Y-43341500D01*
X70053055Y-43321815D01*
X70007300Y-43269011D01*
X69996804Y-43204246D01*
X70000500Y-43169873D01*
X70000499Y-42174128D01*
X69994091Y-42114517D01*
X69981073Y-42079616D01*
X69976090Y-42009926D01*
X69981075Y-41992949D01*
X69993597Y-41959375D01*
X69993598Y-41959372D01*
X69999999Y-41899844D01*
X70000000Y-41899827D01*
X70000000Y-41652000D01*
X67500000Y-41652000D01*
X67500000Y-41899844D01*
X67506401Y-41959372D01*
X67506403Y-41959379D01*
X67518925Y-41992952D01*
X67523909Y-42062643D01*
X67518925Y-42079618D01*
X67505383Y-42115926D01*
X67463512Y-42171860D01*
X67451204Y-42179979D01*
X67431284Y-42191480D01*
X67431281Y-42191482D01*
X62131681Y-47491083D01*
X62070358Y-47524568D01*
X62000666Y-47519584D01*
X61944733Y-47477712D01*
X61920316Y-47412248D01*
X61920000Y-47403402D01*
X61920000Y-46594172D01*
X61919999Y-46594155D01*
X61913598Y-46534627D01*
X61913596Y-46534620D01*
X61863354Y-46399913D01*
X61863350Y-46399906D01*
X61777190Y-46284812D01*
X61777187Y-46284809D01*
X61662093Y-46198649D01*
X61662086Y-46198645D01*
X61527379Y-46148403D01*
X61527372Y-46148401D01*
X61467844Y-46142000D01*
X59570000Y-46142000D01*
X59570000Y-46967000D01*
X59978947Y-46967000D01*
X59978947Y-46966999D01*
X59994819Y-46951128D01*
X60056142Y-46917643D01*
X60125834Y-46922627D01*
X60170181Y-46951128D01*
X60186053Y-46967000D01*
X60971000Y-46967000D01*
X61038039Y-46986685D01*
X61083794Y-47039489D01*
X61095000Y-47091000D01*
X61095000Y-47875947D01*
X61110872Y-47891819D01*
X61144357Y-47953142D01*
X61139373Y-48022834D01*
X61110872Y-48067181D01*
X61095000Y-48083052D01*
X61095000Y-49400947D01*
X61110872Y-49416819D01*
X61144357Y-49478142D01*
X61139373Y-49547834D01*
X61110872Y-49592181D01*
X61095000Y-49608052D01*
X61095000Y-50393000D01*
X61075315Y-50460039D01*
X61022511Y-50505794D01*
X60971000Y-50517000D01*
X60186054Y-50517000D01*
X60163266Y-50526439D01*
X60162468Y-50524512D01*
X60136549Y-50538666D01*
X60110191Y-50541500D01*
X60054809Y-50541500D01*
X60001927Y-50525972D01*
X60001734Y-50526439D01*
X59997391Y-50524640D01*
X59987770Y-50521815D01*
X59984807Y-50519427D01*
X59978946Y-50517000D01*
X58661054Y-50517000D01*
X58638266Y-50526439D01*
X58637468Y-50524512D01*
X58611549Y-50538666D01*
X58585191Y-50541500D01*
X58564628Y-50541500D01*
X58564626Y-50541500D01*
X58556572Y-50542561D01*
X58556361Y-50540960D01*
X58495949Y-50539516D01*
X58469755Y-50523548D01*
X58453946Y-50517000D01*
X57669000Y-50517000D01*
X57601961Y-50497315D01*
X57556206Y-50444511D01*
X57545000Y-50393000D01*
X57545000Y-50286891D01*
X58457500Y-50286891D01*
X58472724Y-50323645D01*
X58500855Y-50351776D01*
X58537609Y-50367000D01*
X58577391Y-50367000D01*
X58614145Y-50351776D01*
X58642276Y-50323645D01*
X58657500Y-50286891D01*
X59982500Y-50286891D01*
X59997724Y-50323645D01*
X60025855Y-50351776D01*
X60062609Y-50367000D01*
X60102391Y-50367000D01*
X60139145Y-50351776D01*
X60167276Y-50323645D01*
X60182500Y-50286891D01*
X60182500Y-50247109D01*
X60167276Y-50210355D01*
X60139145Y-50182224D01*
X60102391Y-50167000D01*
X60062609Y-50167000D01*
X60025855Y-50182224D01*
X59997724Y-50210355D01*
X59982500Y-50247109D01*
X59982500Y-50286891D01*
X58657500Y-50286891D01*
X58657500Y-50247109D01*
X58642276Y-50210355D01*
X58614145Y-50182224D01*
X58577391Y-50167000D01*
X58537609Y-50167000D01*
X58500855Y-50182224D01*
X58472724Y-50210355D01*
X58457500Y-50247109D01*
X58457500Y-50286891D01*
X57545000Y-50286891D01*
X57545000Y-49608053D01*
X57529128Y-49592181D01*
X57495643Y-49530858D01*
X57496105Y-49524391D01*
X57695000Y-49524391D01*
X57710224Y-49561145D01*
X57738355Y-49589276D01*
X57775109Y-49604500D01*
X57814891Y-49604500D01*
X57851645Y-49589276D01*
X57879776Y-49561145D01*
X57895000Y-49524391D01*
X57895000Y-49504499D01*
X58148553Y-49504499D01*
X58557500Y-49913446D01*
X58946555Y-49524391D01*
X59220000Y-49524391D01*
X59235224Y-49561145D01*
X59263355Y-49589276D01*
X59300109Y-49604500D01*
X59339891Y-49604500D01*
X59376645Y-49589276D01*
X59404776Y-49561145D01*
X59420000Y-49524391D01*
X59420000Y-49504499D01*
X59673553Y-49504499D01*
X60082500Y-49913446D01*
X60471555Y-49524391D01*
X60745000Y-49524391D01*
X60760224Y-49561145D01*
X60788355Y-49589276D01*
X60825109Y-49604500D01*
X60864891Y-49604500D01*
X60901645Y-49589276D01*
X60929776Y-49561145D01*
X60945000Y-49524391D01*
X60945000Y-49484609D01*
X60929776Y-49447855D01*
X60901645Y-49419724D01*
X60864891Y-49404500D01*
X60825109Y-49404500D01*
X60788355Y-49419724D01*
X60760224Y-49447855D01*
X60745000Y-49484609D01*
X60745000Y-49524391D01*
X60471555Y-49524391D01*
X60491446Y-49504500D01*
X60137892Y-49150946D01*
X60082500Y-49095553D01*
X60027108Y-49150946D01*
X60027107Y-49150947D01*
X59673553Y-49504499D01*
X59420000Y-49504499D01*
X59420000Y-49484609D01*
X59404776Y-49447855D01*
X59376645Y-49419724D01*
X59339891Y-49404500D01*
X59300109Y-49404500D01*
X59263355Y-49419724D01*
X59235224Y-49447855D01*
X59220000Y-49484609D01*
X59220000Y-49524391D01*
X58946555Y-49524391D01*
X58966446Y-49504500D01*
X58612892Y-49150946D01*
X58557500Y-49095553D01*
X58502108Y-49150946D01*
X58502107Y-49150947D01*
X58148553Y-49504499D01*
X57895000Y-49504499D01*
X57895000Y-49484609D01*
X57879776Y-49447855D01*
X57851645Y-49419724D01*
X57814891Y-49404500D01*
X57775109Y-49404500D01*
X57738355Y-49419724D01*
X57710224Y-49447855D01*
X57695000Y-49484609D01*
X57695000Y-49524391D01*
X57496105Y-49524391D01*
X57500627Y-49461166D01*
X57529128Y-49416819D01*
X57544999Y-49400947D01*
X57545000Y-49400946D01*
X57545000Y-48992000D01*
X56720000Y-48992000D01*
X56720000Y-50889844D01*
X56726401Y-50949372D01*
X56726403Y-50949379D01*
X56776645Y-51084086D01*
X56776649Y-51084093D01*
X56862809Y-51199187D01*
X56862812Y-51199190D01*
X56977906Y-51285350D01*
X56977913Y-51285354D01*
X57112620Y-51335596D01*
X57112627Y-51335598D01*
X57172155Y-51341999D01*
X57172172Y-51342000D01*
X57295087Y-51342000D01*
X57362126Y-51361685D01*
X57407881Y-51414489D01*
X57417825Y-51483647D01*
X57388800Y-51547203D01*
X57382768Y-51553681D01*
X55107953Y-53828495D01*
X55046630Y-53861980D01*
X54976938Y-53856996D01*
X54921005Y-53815124D01*
X54897052Y-53754696D01*
X54887369Y-53668750D01*
X54887368Y-53668745D01*
X54864758Y-53604129D01*
X54827789Y-53498478D01*
X54731816Y-53345738D01*
X54731814Y-53345736D01*
X54731813Y-53345734D01*
X54729550Y-53342896D01*
X54728659Y-53340715D01*
X54728111Y-53339842D01*
X54728264Y-53339745D01*
X54703144Y-53278209D01*
X54702500Y-53265587D01*
X54702500Y-48761891D01*
X58457500Y-48761891D01*
X58472724Y-48798645D01*
X58500855Y-48826776D01*
X58537609Y-48842000D01*
X58577391Y-48842000D01*
X58614145Y-48826776D01*
X58642276Y-48798645D01*
X58657500Y-48761891D01*
X59982500Y-48761891D01*
X59997724Y-48798645D01*
X60025855Y-48826776D01*
X60062609Y-48842000D01*
X60102391Y-48842000D01*
X60139145Y-48826776D01*
X60167276Y-48798645D01*
X60182500Y-48761891D01*
X60182500Y-48722109D01*
X60167276Y-48685355D01*
X60139145Y-48657224D01*
X60102391Y-48642000D01*
X60062609Y-48642000D01*
X60025855Y-48657224D01*
X59997724Y-48685355D01*
X59982500Y-48722109D01*
X59982500Y-48761891D01*
X58657500Y-48761891D01*
X58657500Y-48722109D01*
X58642276Y-48685355D01*
X58614145Y-48657224D01*
X58577391Y-48642000D01*
X58537609Y-48642000D01*
X58500855Y-48657224D01*
X58472724Y-48685355D01*
X58457500Y-48722109D01*
X58457500Y-48761891D01*
X54702500Y-48761891D01*
X54702500Y-48492000D01*
X56720000Y-48492000D01*
X57545000Y-48492000D01*
X57545000Y-48083053D01*
X57529128Y-48067181D01*
X57495643Y-48005858D01*
X57496105Y-47999391D01*
X57695000Y-47999391D01*
X57710224Y-48036145D01*
X57738355Y-48064276D01*
X57775109Y-48079500D01*
X57814891Y-48079500D01*
X57851645Y-48064276D01*
X57879776Y-48036145D01*
X57895000Y-47999391D01*
X57895000Y-47979500D01*
X58148553Y-47979500D01*
X58197021Y-48027967D01*
X58557500Y-48388446D01*
X58946555Y-47999391D01*
X59220000Y-47999391D01*
X59235224Y-48036145D01*
X59263355Y-48064276D01*
X59300109Y-48079500D01*
X59339891Y-48079500D01*
X59376645Y-48064276D01*
X59404776Y-48036145D01*
X59420000Y-47999391D01*
X59420000Y-47979500D01*
X59673553Y-47979500D01*
X59722021Y-48027967D01*
X60082500Y-48388446D01*
X60471555Y-47999391D01*
X60745000Y-47999391D01*
X60760224Y-48036145D01*
X60788355Y-48064276D01*
X60825109Y-48079500D01*
X60864891Y-48079500D01*
X60901645Y-48064276D01*
X60929776Y-48036145D01*
X60945000Y-47999391D01*
X60945000Y-47959609D01*
X60929776Y-47922855D01*
X60901645Y-47894724D01*
X60864891Y-47879500D01*
X60825109Y-47879500D01*
X60788355Y-47894724D01*
X60760224Y-47922855D01*
X60745000Y-47959609D01*
X60745000Y-47999391D01*
X60471555Y-47999391D01*
X60491446Y-47979500D01*
X60137892Y-47625946D01*
X60082500Y-47570553D01*
X60027108Y-47625946D01*
X60027107Y-47625947D01*
X59673553Y-47979500D01*
X59420000Y-47979500D01*
X59420000Y-47959609D01*
X59404776Y-47922855D01*
X59376645Y-47894724D01*
X59339891Y-47879500D01*
X59300109Y-47879500D01*
X59263355Y-47894724D01*
X59235224Y-47922855D01*
X59220000Y-47959609D01*
X59220000Y-47999391D01*
X58946555Y-47999391D01*
X58966446Y-47979500D01*
X58612892Y-47625946D01*
X58557500Y-47570553D01*
X58502108Y-47625946D01*
X58502107Y-47625947D01*
X58148553Y-47979500D01*
X57895000Y-47979500D01*
X57895000Y-47959609D01*
X57879776Y-47922855D01*
X57851645Y-47894724D01*
X57814891Y-47879500D01*
X57775109Y-47879500D01*
X57738355Y-47894724D01*
X57710224Y-47922855D01*
X57695000Y-47959609D01*
X57695000Y-47999391D01*
X57496105Y-47999391D01*
X57500627Y-47936166D01*
X57529128Y-47891819D01*
X57544999Y-47875947D01*
X57545000Y-47875946D01*
X57545000Y-47236891D01*
X58457500Y-47236891D01*
X58472724Y-47273645D01*
X58500855Y-47301776D01*
X58537609Y-47317000D01*
X58577391Y-47317000D01*
X58614145Y-47301776D01*
X58642276Y-47273645D01*
X58657500Y-47236891D01*
X59982500Y-47236891D01*
X59997724Y-47273645D01*
X60025855Y-47301776D01*
X60062609Y-47317000D01*
X60102391Y-47317000D01*
X60139145Y-47301776D01*
X60167276Y-47273645D01*
X60182500Y-47236891D01*
X60182500Y-47197109D01*
X60167276Y-47160355D01*
X60139145Y-47132224D01*
X60102391Y-47117000D01*
X60062609Y-47117000D01*
X60025855Y-47132224D01*
X59997724Y-47160355D01*
X59982500Y-47197109D01*
X59982500Y-47236891D01*
X58657500Y-47236891D01*
X58657500Y-47197109D01*
X58642276Y-47160355D01*
X58614145Y-47132224D01*
X58577391Y-47117000D01*
X58537609Y-47117000D01*
X58500855Y-47132224D01*
X58472724Y-47160355D01*
X58457500Y-47197109D01*
X58457500Y-47236891D01*
X57545000Y-47236891D01*
X57545000Y-47091000D01*
X57564685Y-47023961D01*
X57617489Y-46978206D01*
X57669000Y-46967000D01*
X58453947Y-46967000D01*
X58453947Y-46966999D01*
X58469819Y-46951128D01*
X58531142Y-46917643D01*
X58600834Y-46922627D01*
X58645181Y-46951128D01*
X58661053Y-46967000D01*
X59070000Y-46967000D01*
X59070000Y-46142000D01*
X57172155Y-46142000D01*
X57112627Y-46148401D01*
X57112620Y-46148403D01*
X56977913Y-46198645D01*
X56977906Y-46198649D01*
X56862812Y-46284809D01*
X56862809Y-46284812D01*
X56776649Y-46399906D01*
X56776645Y-46399913D01*
X56726403Y-46534620D01*
X56726401Y-46534627D01*
X56720000Y-46594155D01*
X56720000Y-48492000D01*
X54702500Y-48492000D01*
X54702500Y-45764946D01*
X54702500Y-45764943D01*
X54683095Y-45692520D01*
X54661577Y-45612215D01*
X54618676Y-45537909D01*
X54582520Y-45475284D01*
X54470716Y-45363480D01*
X54470715Y-45363479D01*
X54466385Y-45359149D01*
X54466374Y-45359139D01*
X52687590Y-43580355D01*
X52687588Y-43580352D01*
X52568717Y-43461481D01*
X52568712Y-43461477D01*
X52548798Y-43449980D01*
X52500582Y-43399413D01*
X52494616Y-43385925D01*
X52481341Y-43350332D01*
X52476357Y-43280640D01*
X52481338Y-43263672D01*
X52494091Y-43229483D01*
X52500500Y-43169873D01*
X52500499Y-42174128D01*
X52494091Y-42114517D01*
X52481073Y-42079616D01*
X52476090Y-42009926D01*
X52481075Y-41992949D01*
X52493597Y-41959375D01*
X52493598Y-41959372D01*
X52499999Y-41899844D01*
X52500000Y-41899827D01*
X52500000Y-41652000D01*
X51124000Y-41652000D01*
X51056961Y-41632315D01*
X51011206Y-41579511D01*
X51000000Y-41528000D01*
X51000000Y-41276000D01*
X51019685Y-41208961D01*
X51072489Y-41163206D01*
X51124000Y-41152000D01*
X52500000Y-41152000D01*
X52500000Y-40904172D01*
X52499999Y-40904155D01*
X52493598Y-40844627D01*
X52493596Y-40844620D01*
X52443354Y-40709913D01*
X52443352Y-40709909D01*
X52435045Y-40698813D01*
X52410626Y-40633349D01*
X52425476Y-40565076D01*
X52474881Y-40515669D01*
X52534310Y-40500500D01*
X67465690Y-40500500D01*
X67532729Y-40520185D01*
G37*
%TD.AperFunction*%
%TA.AperFunction,Conductor*%
G36*
X46425334Y-51764414D02*
G01*
X46481267Y-51806286D01*
X46505684Y-51871750D01*
X46506000Y-51880596D01*
X46506000Y-52038000D01*
X49506000Y-52038000D01*
X49506000Y-51916597D01*
X49525685Y-51849558D01*
X49578489Y-51803803D01*
X49647647Y-51793859D01*
X49711203Y-51822884D01*
X49717681Y-51828916D01*
X49815139Y-51926374D01*
X49815149Y-51926385D01*
X49819479Y-51930715D01*
X49819480Y-51930716D01*
X49931284Y-52042520D01*
X49951200Y-52054018D01*
X49999416Y-52104584D01*
X50005383Y-52118074D01*
X50018658Y-52153667D01*
X50023642Y-52223359D01*
X50018659Y-52240330D01*
X50005384Y-52275924D01*
X49963514Y-52331859D01*
X49951204Y-52339979D01*
X49931284Y-52351480D01*
X49931281Y-52351482D01*
X49713063Y-52569701D01*
X49651740Y-52603186D01*
X49582048Y-52598202D01*
X49537701Y-52569701D01*
X49506000Y-52538000D01*
X48256000Y-52538000D01*
X48256000Y-52692500D01*
X48236315Y-52759539D01*
X48183511Y-52805294D01*
X48132000Y-52816500D01*
X47880000Y-52816500D01*
X47812961Y-52796815D01*
X47767206Y-52744011D01*
X47756000Y-52692500D01*
X47756000Y-52538000D01*
X46506000Y-52538000D01*
X46506000Y-52692500D01*
X46486315Y-52759539D01*
X46433511Y-52805294D01*
X46382000Y-52816500D01*
X46250286Y-52816500D01*
X46209365Y-52827464D01*
X46209365Y-52827465D01*
X46172097Y-52837451D01*
X46097560Y-52857423D01*
X46097555Y-52857426D01*
X45960636Y-52936475D01*
X45960628Y-52936481D01*
X45928587Y-52968522D01*
X45867263Y-53002007D01*
X45797572Y-52997021D01*
X45741639Y-52955149D01*
X45728525Y-52933245D01*
X45714035Y-52902171D01*
X45714032Y-52902167D01*
X45714032Y-52902166D01*
X45578494Y-52708597D01*
X45566246Y-52696349D01*
X45532761Y-52635026D01*
X45537745Y-52565334D01*
X45566244Y-52520989D01*
X46294320Y-51792914D01*
X46355642Y-51759430D01*
X46425334Y-51764414D01*
G37*
%TD.AperFunction*%
%TA.AperFunction,Conductor*%
G36*
X71768942Y-45832185D02*
G01*
X71789584Y-45848819D01*
X72063681Y-46122916D01*
X72097166Y-46184239D01*
X72100000Y-46210597D01*
X72100000Y-48565000D01*
X72897828Y-48565000D01*
X72897844Y-48564999D01*
X72957372Y-48558598D01*
X72957379Y-48558596D01*
X73092086Y-48508354D01*
X73092093Y-48508350D01*
X73207187Y-48422190D01*
X73207190Y-48422187D01*
X73293350Y-48307093D01*
X73293354Y-48307086D01*
X73343596Y-48172379D01*
X73343598Y-48172372D01*
X73349999Y-48112844D01*
X73350000Y-48112827D01*
X73350000Y-47628783D01*
X73369685Y-47561744D01*
X73422489Y-47515989D01*
X73491647Y-47506045D01*
X73506093Y-47509008D01*
X73508213Y-47509576D01*
X73508215Y-47509577D01*
X73660943Y-47550500D01*
X73797989Y-47550500D01*
X73865028Y-47570185D01*
X73910783Y-47622989D01*
X73920727Y-47692147D01*
X73899564Y-47745623D01*
X73845965Y-47822169D01*
X73845964Y-47822171D01*
X73746098Y-48036335D01*
X73746094Y-48036344D01*
X73684938Y-48264586D01*
X73684936Y-48264596D01*
X73668761Y-48449479D01*
X73643308Y-48514547D01*
X73595706Y-48549016D01*
X73596753Y-48551189D01*
X73590482Y-48554208D01*
X73437737Y-48650184D01*
X73310184Y-48777737D01*
X73214210Y-48930478D01*
X73191125Y-48996454D01*
X73150403Y-49053230D01*
X73085451Y-49078978D01*
X73074083Y-49079500D01*
X71928098Y-49079500D01*
X71861059Y-49059815D01*
X71840417Y-49043181D01*
X71568799Y-48771563D01*
X71535314Y-48710240D01*
X71540298Y-48640548D01*
X71568799Y-48596201D01*
X71600000Y-48565000D01*
X71600000Y-46215000D01*
X70808441Y-46215000D01*
X70741402Y-46195315D01*
X70720760Y-46178682D01*
X70684078Y-46142000D01*
X70622262Y-46080184D01*
X70560686Y-46041493D01*
X70514396Y-45989159D01*
X70503748Y-45920106D01*
X70532123Y-45856257D01*
X70590513Y-45817885D01*
X70626659Y-45812500D01*
X71701903Y-45812500D01*
X71768942Y-45832185D01*
G37*
%TD.AperFunction*%
%TA.AperFunction,Conductor*%
G36*
X46678459Y-42141080D02*
G01*
X46678665Y-42141152D01*
X46788794Y-42179688D01*
X46845570Y-42220409D01*
X46865545Y-42257724D01*
X46904187Y-42374337D01*
X46996286Y-42523651D01*
X46996289Y-42523655D01*
X47120344Y-42647710D01*
X47120348Y-42647713D01*
X47269662Y-42739812D01*
X47269664Y-42739813D01*
X47269666Y-42739814D01*
X47436203Y-42794999D01*
X47538992Y-42805500D01*
X48863902Y-42805500D01*
X48930941Y-42825185D01*
X48951583Y-42841819D01*
X49262284Y-43152520D01*
X49262286Y-43152521D01*
X49262290Y-43152524D01*
X49395589Y-43229483D01*
X49399216Y-43231577D01*
X49551943Y-43272501D01*
X49551945Y-43272501D01*
X49717654Y-43272501D01*
X49717670Y-43272500D01*
X49879906Y-43272500D01*
X49946945Y-43292185D01*
X49992700Y-43344989D01*
X50003195Y-43409752D01*
X49999500Y-43444127D01*
X49999500Y-43444131D01*
X49999500Y-43444132D01*
X49999500Y-43547351D01*
X49979815Y-43614390D01*
X49927011Y-43660145D01*
X49857853Y-43670089D01*
X49810404Y-43652890D01*
X49758127Y-43620645D01*
X49758118Y-43620641D01*
X49591696Y-43565494D01*
X49591689Y-43565493D01*
X49488985Y-43555000D01*
X48764000Y-43555000D01*
X48764000Y-46055000D01*
X49488973Y-46055000D01*
X49488985Y-46054999D01*
X49591689Y-46044506D01*
X49591696Y-46044505D01*
X49758118Y-45989358D01*
X49758125Y-45989355D01*
X49810402Y-45957110D01*
X49877795Y-45938669D01*
X49944458Y-45959591D01*
X49989228Y-46013233D01*
X49999500Y-46062648D01*
X49999500Y-46979870D01*
X49999501Y-46979876D01*
X50005908Y-47039481D01*
X50018659Y-47073669D01*
X50023642Y-47143361D01*
X50018659Y-47160331D01*
X50005908Y-47194518D01*
X50001353Y-47236891D01*
X49999501Y-47254123D01*
X49999500Y-47254135D01*
X49999500Y-48249870D01*
X49999501Y-48249876D01*
X50003196Y-48284247D01*
X49990789Y-48353006D01*
X49943178Y-48404143D01*
X49879906Y-48421500D01*
X49630500Y-48421500D01*
X49563461Y-48401815D01*
X49517706Y-48349011D01*
X49506500Y-48297500D01*
X49506499Y-47065129D01*
X49506498Y-47065123D01*
X49500091Y-47005516D01*
X49449797Y-46870671D01*
X49449793Y-46870664D01*
X49363547Y-46755455D01*
X49363544Y-46755452D01*
X49248335Y-46669206D01*
X49248328Y-46669202D01*
X49113482Y-46618908D01*
X49113483Y-46618908D01*
X49053883Y-46612501D01*
X49053881Y-46612500D01*
X49053873Y-46612500D01*
X49053864Y-46612500D01*
X46958129Y-46612500D01*
X46958123Y-46612501D01*
X46898516Y-46618908D01*
X46763671Y-46669202D01*
X46763664Y-46669206D01*
X46648453Y-46755454D01*
X46646409Y-46757498D01*
X46643876Y-46758880D01*
X46641355Y-46760768D01*
X46641083Y-46760405D01*
X46585082Y-46790975D01*
X46526645Y-46789581D01*
X46406909Y-46757498D01*
X46377057Y-46749499D01*
X46218943Y-46749499D01*
X46211347Y-46749499D01*
X46211331Y-46749500D01*
X44780989Y-46749500D01*
X44713950Y-46729815D01*
X44668195Y-46677011D01*
X44658251Y-46607853D01*
X44687276Y-46544297D01*
X44728923Y-46512961D01*
X45024789Y-46376078D01*
X45024798Y-46376074D01*
X45326818Y-46194354D01*
X45607420Y-45981046D01*
X45863314Y-45738650D01*
X46091501Y-45470008D01*
X46289305Y-45178269D01*
X46354658Y-45055000D01*
X46839000Y-45055000D01*
X46839000Y-45354985D01*
X46849493Y-45457689D01*
X46849494Y-45457696D01*
X46904641Y-45624118D01*
X46904643Y-45624123D01*
X46996684Y-45773344D01*
X47120655Y-45897315D01*
X47269876Y-45989356D01*
X47269881Y-45989358D01*
X47436303Y-46044505D01*
X47436310Y-46044506D01*
X47539014Y-46054999D01*
X47539027Y-46055000D01*
X48264000Y-46055000D01*
X48264000Y-45055000D01*
X46839000Y-45055000D01*
X46354658Y-45055000D01*
X46454407Y-44866854D01*
X46584871Y-44539414D01*
X46592413Y-44512251D01*
X46595520Y-44501062D01*
X46632422Y-44441732D01*
X46695541Y-44411771D01*
X46764839Y-44420692D01*
X46818314Y-44465662D01*
X46838986Y-44532403D01*
X46839000Y-44534235D01*
X46839000Y-44555000D01*
X48264000Y-44555000D01*
X48264000Y-43555000D01*
X47539014Y-43555000D01*
X47436310Y-43565493D01*
X47436303Y-43565494D01*
X47269881Y-43620641D01*
X47269876Y-43620643D01*
X47120655Y-43712684D01*
X46996682Y-43836657D01*
X46967724Y-43883606D01*
X46915776Y-43930330D01*
X46846813Y-43941551D01*
X46782731Y-43913707D01*
X46743876Y-43855638D01*
X46738368Y-43811797D01*
X46755274Y-43500000D01*
X46753185Y-43461480D01*
X46740607Y-43229483D01*
X46736191Y-43148043D01*
X46679168Y-42800212D01*
X46602381Y-42523651D01*
X46584873Y-42460591D01*
X46584872Y-42460590D01*
X46584872Y-42460589D01*
X46584871Y-42460586D01*
X46522516Y-42304089D01*
X46515990Y-42234526D01*
X46548107Y-42172476D01*
X46608674Y-42137641D01*
X46678459Y-42141080D01*
G37*
%TD.AperFunction*%
%TD*%
M02*
