%TF.GenerationSoftware,KiCad,Pcbnew,8.0.1*%
%TF.CreationDate,2024-05-15T23:39:53+02:00*%
%TF.ProjectId,brain,62726169-6e2e-46b6-9963-61645f706362,rev?*%
%TF.SameCoordinates,Original*%
%TF.FileFunction,Soldermask,Bot*%
%TF.FilePolarity,Negative*%
%FSLAX46Y46*%
G04 Gerber Fmt 4.6, Leading zero omitted, Abs format (unit mm)*
G04 Created by KiCad (PCBNEW 8.0.1) date 2024-05-15 23:39:53*
%MOMM*%
%LPD*%
G01*
G04 APERTURE LIST*
G04 Aperture macros list*
%AMRoundRect*
0 Rectangle with rounded corners*
0 $1 Rounding radius*
0 $2 $3 $4 $5 $6 $7 $8 $9 X,Y pos of 4 corners*
0 Add a 4 corners polygon primitive as box body*
4,1,4,$2,$3,$4,$5,$6,$7,$8,$9,$2,$3,0*
0 Add four circle primitives for the rounded corners*
1,1,$1+$1,$2,$3*
1,1,$1+$1,$4,$5*
1,1,$1+$1,$6,$7*
1,1,$1+$1,$8,$9*
0 Add four rect primitives between the rounded corners*
20,1,$1+$1,$2,$3,$4,$5,0*
20,1,$1+$1,$4,$5,$6,$7,0*
20,1,$1+$1,$6,$7,$8,$9,0*
20,1,$1+$1,$8,$9,$2,$3,0*%
G04 Aperture macros list end*
%ADD10RoundRect,0.250000X-0.600000X-0.725000X0.600000X-0.725000X0.600000X0.725000X-0.600000X0.725000X0*%
%ADD11O,1.700000X1.950000*%
%ADD12R,1.700000X1.700000*%
%ADD13O,1.700000X1.700000*%
%ADD14C,5.500000*%
G04 APERTURE END LIST*
D10*
%TO.C,J4*%
X62798000Y-76183000D03*
D11*
X65298000Y-76183000D03*
X67798000Y-76183000D03*
X70298000Y-76183000D03*
%TD*%
D12*
%TO.C,J5*%
X68072000Y-71374000D03*
D13*
X70612000Y-71374000D03*
X73152000Y-71374000D03*
%TD*%
D10*
%TO.C,I2C1*%
X49396000Y-76200000D03*
D11*
X51896000Y-76200000D03*
X54396000Y-76200000D03*
X56896000Y-76200000D03*
%TD*%
D12*
%TO.C,J2*%
X75020000Y-61200000D03*
D13*
X75020000Y-58660000D03*
X75020000Y-56120000D03*
X75020000Y-53580000D03*
X75020000Y-51040000D03*
X75020000Y-48500000D03*
%TD*%
D12*
%TO.C,J3*%
X68072000Y-67564000D03*
D13*
X70612000Y-67564000D03*
X73152000Y-67564000D03*
%TD*%
D14*
%TO.C,B1*%
X43500000Y-43500000D03*
X43500000Y-76500000D03*
X76500000Y-43500000D03*
X76500000Y-76500000D03*
D12*
X44540000Y-56120000D03*
D13*
X44540000Y-53580000D03*
X44540000Y-51040000D03*
X44540000Y-48500000D03*
X42000000Y-48500000D03*
X42000000Y-51040000D03*
X42000000Y-53580000D03*
X42000000Y-56120000D03*
X42000000Y-58660000D03*
X42000000Y-61200000D03*
X77560000Y-71360000D03*
X77560000Y-68820000D03*
X77560000Y-66280000D03*
X77560000Y-63740000D03*
X77560000Y-61200000D03*
X77560000Y-58660000D03*
X77560000Y-56120000D03*
X77560000Y-53580000D03*
X77560000Y-51040000D03*
X77560000Y-48500000D03*
%TD*%
M02*
