%TF.GenerationSoftware,KiCad,Pcbnew,8.0.1*%
%TF.CreationDate,2024-05-15T23:35:31+02:00*%
%TF.ProjectId,driver,64726976-6572-42e6-9b69-6361645f7063,rev?*%
%TF.SameCoordinates,Original*%
%TF.FileFunction,Soldermask,Top*%
%TF.FilePolarity,Negative*%
%FSLAX46Y46*%
G04 Gerber Fmt 4.6, Leading zero omitted, Abs format (unit mm)*
G04 Created by KiCad (PCBNEW 8.0.1) date 2024-05-15 23:35:31*
%MOMM*%
%LPD*%
G01*
G04 APERTURE LIST*
G04 Aperture macros list*
%AMRoundRect*
0 Rectangle with rounded corners*
0 $1 Rounding radius*
0 $2 $3 $4 $5 $6 $7 $8 $9 X,Y pos of 4 corners*
0 Add a 4 corners polygon primitive as box body*
4,1,4,$2,$3,$4,$5,$6,$7,$8,$9,$2,$3,0*
0 Add four circle primitives for the rounded corners*
1,1,$1+$1,$2,$3*
1,1,$1+$1,$4,$5*
1,1,$1+$1,$6,$7*
1,1,$1+$1,$8,$9*
0 Add four rect primitives between the rounded corners*
20,1,$1+$1,$2,$3,$4,$5,0*
20,1,$1+$1,$4,$5,$6,$7,0*
20,1,$1+$1,$6,$7,$8,$9,0*
20,1,$1+$1,$8,$9,$2,$3,0*%
G04 Aperture macros list end*
%ADD10RoundRect,0.250000X0.600000X0.750000X-0.600000X0.750000X-0.600000X-0.750000X0.600000X-0.750000X0*%
%ADD11O,1.700000X2.000000*%
%ADD12RoundRect,0.237500X0.300000X0.237500X-0.300000X0.237500X-0.300000X-0.237500X0.300000X-0.237500X0*%
%ADD13RoundRect,0.237500X-0.300000X-0.237500X0.300000X-0.237500X0.300000X0.237500X-0.300000X0.237500X0*%
%ADD14RoundRect,0.237500X0.237500X-0.250000X0.237500X0.250000X-0.237500X0.250000X-0.237500X-0.250000X0*%
%ADD15RoundRect,0.250000X-0.750000X0.600000X-0.750000X-0.600000X0.750000X-0.600000X0.750000X0.600000X0*%
%ADD16O,2.000000X1.700000*%
%ADD17RoundRect,0.237500X-0.237500X0.300000X-0.237500X-0.300000X0.237500X-0.300000X0.237500X0.300000X0*%
%ADD18RoundRect,0.250000X-0.600000X-0.750000X0.600000X-0.750000X0.600000X0.750000X-0.600000X0.750000X0*%
%ADD19RoundRect,0.237500X-0.237500X0.250000X-0.237500X-0.250000X0.237500X-0.250000X0.237500X0.250000X0*%
%ADD20R,1.250000X0.700000*%
%ADD21R,0.550000X1.100000*%
%ADD22C,5.500000*%
%ADD23R,1.700000X1.700000*%
%ADD24O,1.700000X1.700000*%
%ADD25R,3.500000X2.350000*%
%ADD26RoundRect,0.250000X-0.337500X-0.475000X0.337500X-0.475000X0.337500X0.475000X-0.337500X0.475000X0*%
%ADD27RoundRect,0.237500X0.237500X-0.300000X0.237500X0.300000X-0.237500X0.300000X-0.237500X-0.300000X0*%
%ADD28R,2.310000X2.460000*%
%ADD29RoundRect,0.100000X0.100000X-0.687500X0.100000X0.687500X-0.100000X0.687500X-0.100000X-0.687500X0*%
G04 APERTURE END LIST*
D10*
%TO.C,J14*%
X69802000Y-48955497D03*
D11*
X67302000Y-48955497D03*
%TD*%
D12*
%TO.C,C10*%
X59262500Y-52860000D03*
X57537500Y-52860000D03*
%TD*%
D13*
%TO.C,C9*%
X60877500Y-52840000D03*
X62602500Y-52840000D03*
%TD*%
D14*
%TO.C,R19*%
X49105000Y-51880000D03*
X49105000Y-50055000D03*
%TD*%
D15*
%TO.C,J1*%
X49400000Y-66780000D03*
D16*
X49400000Y-69280000D03*
%TD*%
D14*
%TO.C,R23*%
X69023000Y-67131498D03*
X69023000Y-65306498D03*
%TD*%
D17*
%TO.C,C13*%
X47590000Y-48470000D03*
X47590000Y-50195000D03*
%TD*%
D12*
%TO.C,C8*%
X62602500Y-54340000D03*
X60877500Y-54340000D03*
%TD*%
D18*
%TO.C,J6*%
X59112000Y-70759501D03*
D11*
X61612000Y-70759501D03*
%TD*%
D13*
%TO.C,C19*%
X69290500Y-52838998D03*
X71015500Y-52838998D03*
%TD*%
D19*
%TO.C,R18*%
X50830000Y-50055000D03*
X50830000Y-51880000D03*
%TD*%
D12*
%TO.C,C11*%
X59272500Y-54380000D03*
X57547500Y-54380000D03*
%TD*%
%TO.C,C18*%
X71015500Y-54338998D03*
X69290500Y-54338998D03*
%TD*%
D14*
%TO.C,R11*%
X58070000Y-67112500D03*
X58070000Y-65287500D03*
%TD*%
%TO.C,R17*%
X52555000Y-51880000D03*
X52555000Y-50055000D03*
%TD*%
D10*
%TO.C,J7*%
X61389000Y-48956499D03*
D11*
X58889000Y-48956499D03*
%TD*%
D20*
%TO.C,Q1*%
X47820000Y-61670000D03*
X45320000Y-60720000D03*
X47820000Y-59770000D03*
%TD*%
D21*
%TO.C,U5*%
X51260000Y-55880000D03*
X50310000Y-55880000D03*
X49360000Y-55880000D03*
X49360000Y-58280000D03*
X50310000Y-58280000D03*
X51260000Y-58280000D03*
%TD*%
D14*
%TO.C,R12*%
X60610000Y-67132500D03*
X60610000Y-65307500D03*
%TD*%
%TO.C,R22*%
X66483000Y-67111498D03*
X66483000Y-65286498D03*
%TD*%
D18*
%TO.C,J13*%
X67525000Y-70758499D03*
D11*
X70025000Y-70758499D03*
%TD*%
D22*
%TO.C,B1*%
X43500000Y-43500000D03*
X43500000Y-76500000D03*
X76500000Y-43500000D03*
X76500000Y-76500000D03*
D23*
X44540000Y-56120000D03*
D24*
X44540000Y-53580000D03*
X44540000Y-51040000D03*
X44540000Y-48500000D03*
X42000000Y-48500000D03*
X42000000Y-51040000D03*
X42000000Y-53580000D03*
X42000000Y-56120000D03*
X42000000Y-58660000D03*
X42000000Y-61200000D03*
X77560000Y-71360000D03*
X77560000Y-68820000D03*
X77560000Y-66280000D03*
X77560000Y-63740000D03*
X77560000Y-61200000D03*
X77560000Y-58660000D03*
X77560000Y-56120000D03*
X77560000Y-53580000D03*
X77560000Y-51040000D03*
X77560000Y-48500000D03*
%TD*%
D12*
%TO.C,C20*%
X67675500Y-52858998D03*
X65950500Y-52858998D03*
%TD*%
D25*
%TO.C,U6*%
X52120000Y-47300000D03*
X52120000Y-41600000D03*
%TD*%
D12*
%TO.C,C21*%
X67685500Y-54378998D03*
X65960500Y-54378998D03*
%TD*%
D17*
%TO.C,C14*%
X47590000Y-41520000D03*
X47590000Y-43245000D03*
%TD*%
D26*
%TO.C,C12*%
X50353500Y-53912000D03*
X52428500Y-53912000D03*
%TD*%
D27*
%TO.C,C15*%
X47590000Y-46720000D03*
X47590000Y-44995000D03*
%TD*%
D28*
%TO.C,U4*%
X60435000Y-60232500D03*
D29*
X58160000Y-63095000D03*
X58810000Y-63095000D03*
X59460000Y-63095000D03*
X60110000Y-63095000D03*
X60760000Y-63095000D03*
X61410000Y-63095000D03*
X62060000Y-63095000D03*
X62710000Y-63095000D03*
X62710000Y-57370000D03*
X62060000Y-57370000D03*
X61410000Y-57370000D03*
X60760000Y-57370000D03*
X60110000Y-57370000D03*
X59460000Y-57370000D03*
X58810000Y-57370000D03*
X58160000Y-57370000D03*
%TD*%
D28*
%TO.C,U7*%
X68848000Y-60231498D03*
D29*
X66573000Y-63093998D03*
X67223000Y-63093998D03*
X67873000Y-63093998D03*
X68523000Y-63093998D03*
X69173000Y-63093998D03*
X69823000Y-63093998D03*
X70473000Y-63093998D03*
X71123000Y-63093998D03*
X71123000Y-57368998D03*
X70473000Y-57368998D03*
X69823000Y-57368998D03*
X69173000Y-57368998D03*
X68523000Y-57368998D03*
X67873000Y-57368998D03*
X67223000Y-57368998D03*
X66573000Y-57368998D03*
%TD*%
M02*
